; RUN: opt -load HPVMBuildDFG.so  -enable-new-pm=0 -S < %s | FileCheck %s
; ModuleID = 'CreateNode.ll'
source_filename = "CreateNode.c"
target datalayout = "e-m:e-i64:64-f80:128-n8:16:32:64-S128"
target triple = "x86_64-unknown-linux-gnu"

%struct.Root = type { i32*, i32* }
%struct.out.Func = type <{ i32* }>
%struct.out.PipeRoot = type <{ i32* }>
; CHECK-LABEL: struct.Root =

; CHECK-LABEL: %struct.out.Func =
; CHECK-LABEL: %struct.out.PipeRoot =

; CHECK-LABEL: i32 @main(
; CHECK: [[ALLOCA:%[1-9a-zA-Z]+]] = alloca %struct.Root
; CHECK: call void @llvm.hpvm.init()
; CHECK:  [[REGISTER:%[1-9]+]] = bitcast %struct.Root* [[ALLOCA]] to i8*
; CHECK: call i8* @llvm.hpvm.launch(i8* bitcast (%struct.out.PipeRoot (i32*, i32*)* @PipeRoot_cloned to i8*), i8* [[REGISTER]], i1 false)
; CHECK-NEXT: call void @llvm.hpvm.wait(i8*

; CHECK-LABEL: @Func_cloned(
; CHECK: [[RET:%[1-9a-zA-Z]+]] = insertvalue %struct.out.Func undef,
; CHECK-NEXT: ret %struct.out.Func [[RET]]

; CHECK-LABEL: @PipeRoot_cloned(i32*
; CHECK: %Func_cloned.node = call i8* @llvm.hpvm.createNode(i8* bitcast (%struct.out.Func (i32*
; CHECK-NEXT: @llvm.hpvm.bind.input(i8* %Func_cloned.node
; CHECK-NEXT: @llvm.hpvm.bind.output(i8* %Func_cloned.node

declare dso_local void @__hpvm__hint(i32) local_unnamed_addr #0

declare dso_local void @__hpvm__attributes(i32, ...) local_unnamed_addr #0

declare dso_local void @__hpvm__return(i32, ...) local_unnamed_addr #0

; Function Attrs: argmemonly nounwind
declare void @llvm.lifetime.start.p0i8(i64 immarg, i8* nocapture) #1

declare dso_local i8* @__hpvm__createNodeND(i32, ...) local_unnamed_addr #0

declare dso_local void @__hpvm__bindIn(i8*, i32, i32, i32) local_unnamed_addr #0

declare dso_local void @__hpvm__bindOut(i8*, i32, i32, i32) local_unnamed_addr #0

; Function Attrs: argmemonly nounwind
declare void @llvm.lifetime.end.p0i8(i64 immarg, i8* nocapture) #1

; Function Attrs: nounwind uwtable
define dso_local i32 @main() local_unnamed_addr #2 {
entry:
  %In = alloca i32, align 4
  %Out = alloca i32, align 4
  %RootArgs = alloca %struct.Root, align 8
  %0 = bitcast i32* %In to i8*
  call void @llvm.lifetime.start.p0i8(i64 4, i8* nonnull %0) #3
  %1 = bitcast i32* %Out to i8*
  call void @llvm.lifetime.start.p0i8(i64 4, i8* nonnull %1) #3
  %2 = bitcast %struct.Root* %RootArgs to i8*
  call void @llvm.lifetime.start.p0i8(i64 16, i8* nonnull %2) #3
  %input = getelementptr inbounds %struct.Root, %struct.Root* %RootArgs, i64 0, i32 0
  store i32* %In, i32** %input, align 8, !tbaa !4
  %output = getelementptr inbounds %struct.Root, %struct.Root* %RootArgs, i64 0, i32 1
  store i32* %Out, i32** %output, align 8, !tbaa !9
  call void @llvm.hpvm.init()
  %3 = bitcast %struct.Root* %RootArgs to i8*
  %graphID = call i8* @llvm.hpvm.launch(i8* bitcast (%struct.out.PipeRoot (i32*, i32*)* @PipeRoot_cloned to i8*), i8* %3, i1 false)
  call void @llvm.hpvm.wait(i8* %graphID)
  call void @llvm.hpvm.cleanup()
  call void @llvm.lifetime.end.p0i8(i64 16, i8* nonnull %2) #3
  call void @llvm.lifetime.end.p0i8(i64 4, i8* nonnull %1) #3
  call void @llvm.lifetime.end.p0i8(i64 4, i8* nonnull %0) #3
  ret i32 0
}

declare dso_local void @__hpvm__init(...) local_unnamed_addr #0

declare dso_local i8* @__hpvm__launch(i32, ...) local_unnamed_addr #0

declare dso_local void @__hpvm__wait(i8*) local_unnamed_addr #0

declare dso_local void @__hpvm__cleanup(...) local_unnamed_addr #0

declare i8* @llvm_hpvm_initializeTimerSet()

declare void @llvm_hpvm_switchToTimer(i8**, i32)

declare void @llvm_hpvm_printTimerSet(i8**, i8*)

; Function Attrs: nounwind uwtable
define dso_local %struct.out.Func @Func_cloned(i32* in %In, i32* out %Out) #2 {
entry:
  %returnStruct = insertvalue %struct.out.Func undef, i32* %Out, 0
  ret %struct.out.Func %returnStruct
}

; Function Attrs: nounwind
declare i8* @llvm.hpvm.createNode(i8*) #3

; Function Attrs: nounwind
declare void @llvm.hpvm.bind.input(i8*, i32, i32, i1) #3

; Function Attrs: nounwind
declare void @llvm.hpvm.bind.output(i8*, i32, i32, i1) #3

; Function Attrs: nounwind uwtable
define dso_local %struct.out.PipeRoot @PipeRoot_cloned(i32* in %In, i32* out %Out) #2 {
entry:
  %Func_cloned.node = call i8* @llvm.hpvm.createNode(i8* bitcast (%struct.out.Func (i32*, i32*)* @Func_cloned to i8*))
  call void @llvm.hpvm.bind.input(i8* %Func_cloned.node, i32 0, i32 0, i1 false)
  call void @llvm.hpvm.bind.output(i8* %Func_cloned.node, i32 0, i32 0, i1 false)
  ret %struct.out.PipeRoot undef
}

; Function Attrs: nounwind
declare void @llvm.hpvm.init() #3

; Function Attrs: nounwind
declare i8* @llvm.hpvm.launch(i8*, i8*, i1) #3

; Function Attrs: nounwind
declare void @llvm.hpvm.wait(i8*) #3

; Function Attrs: nounwind
declare void @llvm.hpvm.cleanup() #3

attributes #0 = { "correctly-rounded-divide-sqrt-fp-math"="false" "disable-tail-calls"="false" "less-precise-fpmad"="false" "no-frame-pointer-elim"="false" "no-infs-fp-math"="true" "no-nans-fp-math"="true" "no-signed-zeros-fp-math"="true" "no-trapping-math"="true" "stack-protector-buffer-size"="8" "target-cpu"="x86-64" "target-features"="+cx8,+fxsr,+mmx,+sse,+sse2,+x87" "unsafe-fp-math"="true" "use-soft-float"="false" }
attributes #1 = { argmemonly nounwind }
attributes #2 = { nounwind uwtable "correctly-rounded-divide-sqrt-fp-math"="false" "disable-tail-calls"="false" "less-precise-fpmad"="false" "min-legal-vector-width"="0" "no-frame-pointer-elim"="false" "no-infs-fp-math"="true" "no-jump-tables"="false" "no-nans-fp-math"="true" "no-signed-zeros-fp-math"="true" "no-trapping-math"="true" "stack-protector-buffer-size"="8" "target-cpu"="x86-64" "target-features"="+cx8,+fxsr,+mmx,+sse,+sse2,+x87" "unsafe-fp-math"="true" "use-soft-float"="false" }
attributes #3 = { nounwind }

!llvm.module.flags = !{!0}
!llvm.ident = !{!1}
!hpvm_hint_cpu = !{!2, !3}
!hpvm_hint_gpu = !{}
!hpvm_hint_spir = !{}
!hpvm_hint_cudnn = !{}
!hpvm_hint_promise = !{}
!hpvm_hint_cpu_gpu = !{}
!hpvm_hint_cpu_spir = !{}

!0 = !{i32 1, !"wchar_size", i32 4}
!1 = !{!"clang version 9.0.0 (https://gitlab.engr.illinois.edu/llvm/hpvm.git 6690f9e7e8b46b96aea222d3e85315cd63545953)"}
!2 = !{%struct.out.Func (i32*, i32*)* @Func_cloned}
!3 = !{%struct.out.PipeRoot (i32*, i32*)* @PipeRoot_cloned}
!4 = !{!5, !6, i64 0}
!5 = !{!"Root", !6, i64 0, !6, i64 8}
!6 = !{!"any pointer", !7, i64 0}
!7 = !{!"omnipotent char", !8, i64 0}
!8 = !{!"Simple C/C++ TBAA"}
!9 = !{!5, !6, i64 8}
