; RUN: hcc  -declsfile ../tools/hpvm/projects/hetero-c++/lib/HPVMCFunctionDeclarations/HPVMCFunctionDeclarations.bc  -control-only -S  < %s | FileCheck %s  
; ModuleID = 'happy/simple.cc'
source_filename = "happy/simple.cc"
target datalayout = "e-m:e-p270:32:32-p271:32:32-p272:64:64-i64:64-f80:128-n8:16:32:64-S128"
target triple = "x86_64-unknown-linux-gnu"

; CHECK-LABEL: i32 @main(
; CHECK: call void @__hpvm__init()
; CHECK: call void @llvm_hpvm_track_mem(
; CHECK: %__hpvm__launch = call i8* (i32, ...) @__hpvm__launch(i32 0, void (i32*, i64)* @_Z6RootFnPim
; CHECK: call void @__hpvm__wait(i8* %__hpvm__launch)
; CHECK: call void @llvm_hpvm_request_mem(
; CHECK: call void @llvm_hpvm_untrack_mem(
; CHECK: call void @__hpvm__cleanup()

; Function Attrs: mustprogress uwtable
define dso_local void @_Z6RootFnPim(i32* %ptr, i64 %pSz) #0 {
entry:
  %call = call i8* @__hetero_section_begin()
  %call1 = call i8* (i32, ...) @__hetero_task_begin(i32 1, i32* %ptr, i64 %pSz, i32 1, i32* %ptr, i64 %pSz)
  %sub = shl i64 %pSz, 30
  %0 = add i64 %sub, -4294967296
  %idxprom = ashr i64 %0, 32
  %arrayidx = getelementptr inbounds i32, i32* %ptr, i64 %idxprom
  store i32 -1, i32* %arrayidx, align 4, !tbaa !3
  call void @__hetero_task_end(i8* %call1)
  call void @__hetero_section_end(i8* %call)
  ret void
}

declare dso_local i8* @__hetero_section_begin() local_unnamed_addr #1

declare dso_local i8* @__hetero_task_begin(i32, ...) local_unnamed_addr #1

declare dso_local void @__hetero_task_end(i8*) local_unnamed_addr #1

declare dso_local void @__hetero_section_end(i8*) local_unnamed_addr #1

; Function Attrs: mustprogress norecurse uwtable
define dso_local i32 @main() local_unnamed_addr #2 {
entry:
  %call = call noalias align 16 dereferenceable_or_null(40) i8* @malloc(i64 40) #4
  %call1 = call i8* (i8*, ...) @__hetero_launch(i8* bitcast (void (i32*, i64)* @_Z6RootFnPim to i8*), i32 1, i8* %call, i64 40, i32 1, i8* %call, i64 40)
  call void @__hetero_wait(i8* %call1)
  ret i32 0
}

; Function Attrs: inaccessiblememonly mustprogress nofree nounwind willreturn
declare dso_local noalias noundef align 16 i8* @malloc(i64 noundef) local_unnamed_addr #3

declare dso_local i8* @__hetero_launch(i8*, ...) local_unnamed_addr #1

declare dso_local void @__hetero_wait(i8*) local_unnamed_addr #1

attributes #0 = { mustprogress uwtable "frame-pointer"="none" "min-legal-vector-width"="0" "no-trapping-math"="true" "stack-protector-buffer-size"="8" "target-cpu"="x86-64" "target-features"="+cx8,+fxsr,+mmx,+sse,+sse2,+x87" "tune-cpu"="generic" }
attributes #1 = { "frame-pointer"="none" "no-trapping-math"="true" "stack-protector-buffer-size"="8" "target-cpu"="x86-64" "target-features"="+cx8,+fxsr,+mmx,+sse,+sse2,+x87" "tune-cpu"="generic" }
attributes #2 = { mustprogress norecurse uwtable "frame-pointer"="none" "min-legal-vector-width"="0" "no-trapping-math"="true" "stack-protector-buffer-size"="8" "target-cpu"="x86-64" "target-features"="+cx8,+fxsr,+mmx,+sse,+sse2,+x87" "tune-cpu"="generic" }
attributes #3 = { inaccessiblememonly mustprogress nofree nounwind willreturn "frame-pointer"="none" "no-trapping-math"="true" "stack-protector-buffer-size"="8" "target-cpu"="x86-64" "target-features"="+cx8,+fxsr,+mmx,+sse,+sse2,+x87" "tune-cpu"="generic" }
attributes #4 = { nounwind }

!llvm.module.flags = !{!0, !1}
!llvm.ident = !{!2}

!0 = !{i32 1, !"wchar_size", i32 4}
!1 = !{i32 7, !"uwtable", i32 1}
!2 = !{!"clang version 13.0.0 (https://gitlab.engr.illinois.edu/llvm/hpvm.git a559c3fc5579f24202614fba580b005b8906b3df)"}
!3 = !{!4, !4, i64 0}
!4 = !{!"int", !5, i64 0}
!5 = !{!"omnipotent char", !6, i64 0}
!6 = !{!"Simple C++ TBAA"}
