; RUN: opt -load HPVMBuildDFG.so -load HPVMInPlaceDFGAnalysis.so -load HPVMDFG2LLVM_WrapperAPI.so -enable-new-pm=0 -S -inplace -dfg2llvm-wrapperapi --configuration-inputs-filename=conf_file.txt < %s | FileCheck %s
; ModuleID = 'batchNorm.hpvm.ll'
source_filename = "batchNorm.cpp"
target datalayout = "e-m:e-i64:64-f80:128-n8:16:32:64-S128"
target triple = "x86_64-unknown-linux-gnu"

%struct.out._Z9relu_nodePvm = type <{ i8*, i64 }>
%struct.out._Z19batchNormLayer_nodePvmS_mS_mS_mS_m = type <{ i8*, i64 }>
%struct.out._Z4rootPvmS_mS_mS_mS_m = type <{ i8*, i64 }>


; CHECK-LABEL: i32 @main(
; CHECK: call void @llvm_hpvm_initApproxhpvmRt(i32 0)
; CHECK-NEXT: call void @llvm_hpvm_initializeRuntimeController(
; CHECK-NEXT: call void @llvm.hpvm.init()
; CHECK: call void @hpvm_request_tensor(
; CHECK: call void @llvm_hpvm_cleanupApproxhpvmRt()
; CHECK: call void @llvm_hpvm_clearRuntimeController()
; CHECK-NEXT: call void @llvm.hpvm.cleanup()

; CHECK-LABEL: @_Z19batchNormLayer_nodePvmS_mS_mS_mS_m_cloned_wrapper_api(
; CHECK: call i8* @wrapper_tensorBatchNorm(
; CHECK: ret

; CHECK-LABEL: @_Z9relu_nodePvm_cloned_wrapper_api(
; CHECK: call i8* @wrapper_tensorRelu(
; CHECK: ret



; Function Attrs: norecurse nounwind uwtable
define dso_local i32 @main() local_unnamed_addr #0 {
entry:
  call void @llvm.hpvm.init()
  %call = tail call noalias i8* @malloc(i64 96) #3
  %graphID = call i8* @llvm.hpvm.launch(i8* bitcast (%struct.out._Z4rootPvmS_mS_mS_mS_m (i8*, i64, i8*, i64, i8*, i64, i8*, i64, i8*, i64)* @_Z4rootPvmS_mS_mS_mS_m_cloned to i8*), i8* %call, i1 false)
  call void @llvm.hpvm.wait(i8* %graphID)
  %input = bitcast i8* %call to i8**
  %0 = load i8*, i8** %input, align 1, !tbaa !5
  tail call void @hpvm_request_tensor(i8* %0, i32 1) #3
  call void @llvm.hpvm.cleanup()
  ret i32 0
}

; Function Attrs: nofree nounwind
declare dso_local noalias i8* @malloc(i64) local_unnamed_addr #1

declare dso_local void @hpvm_request_tensor(i8*, i32) local_unnamed_addr #2

; Function Attrs: nounwind
declare i8* @llvm.hpvm.tensor.relu(i8*) #3

; Function Attrs: nounwind uwtable
define dso_local %struct.out._Z9relu_nodePvm @_Z9relu_nodePvm_cloned(i8* in %t1, i64 %bytes_t1) #4 {
entry:
  %call1 = call i8* @llvm.hpvm.tensor.relu(i8* %t1)
  %returnStruct = insertvalue %struct.out._Z9relu_nodePvm undef, i8* %call1, 0
  %returnStruct2 = insertvalue %struct.out._Z9relu_nodePvm %returnStruct, i64 0, 1
  ret %struct.out._Z9relu_nodePvm %returnStruct2
}

; Function Attrs: nounwind
declare i8* @llvm.hpvm.tensor.batchnorm(i8*, i8*, i8*, i8*, i8*, double) #3

; Function Attrs: nounwind uwtable
define dso_local %struct.out._Z19batchNormLayer_nodePvmS_mS_mS_mS_m @_Z19batchNormLayer_nodePvmS_mS_mS_mS_m_cloned(i8* in %t1, i64 %bytes_t1, i8* in %t2, i64 %bytes_t2, i8* in %t3, i64 %bytes_t3, i8* in %t4, i64 %bytes_t4, i8* in %t5, i64 %bytes_t5) #4 {
entry:
  %call1 = call i8* @llvm.hpvm.tensor.batchnorm(i8* %t1, i8* %t2, i8* %t3, i8* %t4, i8* %t5, double 1.000000e-03)
  %returnStruct = insertvalue %struct.out._Z19batchNormLayer_nodePvmS_mS_mS_mS_m undef, i8* %call1, 0
  %returnStruct2 = insertvalue %struct.out._Z19batchNormLayer_nodePvmS_mS_mS_mS_m %returnStruct, i64 0, 1
  ret %struct.out._Z19batchNormLayer_nodePvmS_mS_mS_mS_m %returnStruct2
}

; Function Attrs: nounwind
declare i8* @llvm.hpvm.createNode(i8*) #3

; Function Attrs: nounwind
declare void @llvm.hpvm.bind.input(i8*, i32, i32, i1) #3

; Function Attrs: nounwind
declare i8* @llvm.hpvm.createEdge(i8*, i8*, i1, i32, i32, i1) #3

; Function Attrs: nounwind
declare void @llvm.hpvm.bind.output(i8*, i32, i32, i1) #3

; Function Attrs: nounwind uwtable
define dso_local %struct.out._Z4rootPvmS_mS_mS_mS_m @_Z4rootPvmS_mS_mS_mS_m_cloned(i8* in %input, i64 %input_bytes, i8* in %batch_normalization_1_gamma, i64 %batch_normalization_1_gamma_bytes, i8* in %batch_normalization_1_beta, i64 %batch_normalization_1_beta_bytes, i8* in %batch_normalization_1_mean, i64 %batch_normalization_1_mean_bytes, i8* in %batch_normalization_1_variance, i64 %batch_normalization_1_variance_bytes) #4 {
entry:
  %_Z19batchNormLayer_nodePvmS_mS_mS_mS_m_cloned.node = call i8* @llvm.hpvm.createNode(i8* bitcast (%struct.out._Z19batchNormLayer_nodePvmS_mS_mS_mS_m (i8*, i64, i8*, i64, i8*, i64, i8*, i64, i8*, i64)* @_Z19batchNormLayer_nodePvmS_mS_mS_mS_m_cloned to i8*))
  call void @llvm.hpvm.bind.input(i8* %_Z19batchNormLayer_nodePvmS_mS_mS_mS_m_cloned.node, i32 0, i32 0, i1 false)
  call void @llvm.hpvm.bind.input(i8* %_Z19batchNormLayer_nodePvmS_mS_mS_mS_m_cloned.node, i32 1, i32 1, i1 false)
  call void @llvm.hpvm.bind.input(i8* %_Z19batchNormLayer_nodePvmS_mS_mS_mS_m_cloned.node, i32 2, i32 2, i1 false)
  call void @llvm.hpvm.bind.input(i8* %_Z19batchNormLayer_nodePvmS_mS_mS_mS_m_cloned.node, i32 3, i32 3, i1 false)
  call void @llvm.hpvm.bind.input(i8* %_Z19batchNormLayer_nodePvmS_mS_mS_mS_m_cloned.node, i32 4, i32 4, i1 false)
  call void @llvm.hpvm.bind.input(i8* %_Z19batchNormLayer_nodePvmS_mS_mS_mS_m_cloned.node, i32 5, i32 5, i1 false)
  call void @llvm.hpvm.bind.input(i8* %_Z19batchNormLayer_nodePvmS_mS_mS_mS_m_cloned.node, i32 6, i32 6, i1 false)
  call void @llvm.hpvm.bind.input(i8* %_Z19batchNormLayer_nodePvmS_mS_mS_mS_m_cloned.node, i32 7, i32 7, i1 false)
  call void @llvm.hpvm.bind.input(i8* %_Z19batchNormLayer_nodePvmS_mS_mS_mS_m_cloned.node, i32 8, i32 8, i1 false)
  call void @llvm.hpvm.bind.input(i8* %_Z19batchNormLayer_nodePvmS_mS_mS_mS_m_cloned.node, i32 9, i32 9, i1 false)
  %_Z9relu_nodePvm_cloned.node = call i8* @llvm.hpvm.createNode(i8* bitcast (%struct.out._Z9relu_nodePvm (i8*, i64)* @_Z9relu_nodePvm_cloned to i8*))
  %output = call i8* @llvm.hpvm.createEdge(i8* %_Z19batchNormLayer_nodePvmS_mS_mS_mS_m_cloned.node, i8* %_Z9relu_nodePvm_cloned.node, i1 true, i32 0, i32 0, i1 false)
  %output1 = call i8* @llvm.hpvm.createEdge(i8* %_Z19batchNormLayer_nodePvmS_mS_mS_mS_m_cloned.node, i8* %_Z9relu_nodePvm_cloned.node, i1 true, i32 1, i32 1, i1 false)
  call void @llvm.hpvm.bind.output(i8* %_Z9relu_nodePvm_cloned.node, i32 0, i32 0, i1 false)
  call void @llvm.hpvm.bind.output(i8* %_Z9relu_nodePvm_cloned.node, i32 1, i32 1, i1 false)
  ret %struct.out._Z4rootPvmS_mS_mS_mS_m undef
}

; Function Attrs: nounwind
declare void @llvm.hpvm.init() #3

; Function Attrs: nounwind
declare i8* @llvm.hpvm.launch(i8*, i8*, i1) #3

; Function Attrs: nounwind
declare void @llvm.hpvm.wait(i8*) #3

; Function Attrs: nounwind
declare void @llvm.hpvm.cleanup() #3

attributes #0 = { norecurse nounwind uwtable "correctly-rounded-divide-sqrt-fp-math"="false" "disable-tail-calls"="false" "less-precise-fpmad"="false" "min-legal-vector-width"="0" "no-frame-pointer-elim"="false" "no-infs-fp-math"="true" "no-jump-tables"="false" "no-nans-fp-math"="true" "no-signed-zeros-fp-math"="true" "no-trapping-math"="true" "stack-protector-buffer-size"="8" "target-cpu"="x86-64" "target-features"="+cx8,+fxsr,+mmx,+sse,+sse2,+x87" "unsafe-fp-math"="true" "use-soft-float"="false" }
attributes #1 = { nofree nounwind "correctly-rounded-divide-sqrt-fp-math"="false" "disable-tail-calls"="false" "less-precise-fpmad"="false" "no-frame-pointer-elim"="false" "no-infs-fp-math"="true" "no-nans-fp-math"="true" "no-signed-zeros-fp-math"="true" "no-trapping-math"="true" "stack-protector-buffer-size"="8" "target-cpu"="x86-64" "target-features"="+cx8,+fxsr,+mmx,+sse,+sse2,+x87" "unsafe-fp-math"="true" "use-soft-float"="false" }
attributes #2 = { "correctly-rounded-divide-sqrt-fp-math"="false" "disable-tail-calls"="false" "less-precise-fpmad"="false" "no-frame-pointer-elim"="false" "no-infs-fp-math"="true" "no-nans-fp-math"="true" "no-signed-zeros-fp-math"="true" "no-trapping-math"="true" "stack-protector-buffer-size"="8" "target-cpu"="x86-64" "target-features"="+cx8,+fxsr,+mmx,+sse,+sse2,+x87" "unsafe-fp-math"="true" "use-soft-float"="false" }
attributes #3 = { nounwind }
attributes #4 = { nounwind uwtable "correctly-rounded-divide-sqrt-fp-math"="false" "disable-tail-calls"="false" "less-precise-fpmad"="false" "min-legal-vector-width"="0" "no-frame-pointer-elim"="false" "no-infs-fp-math"="true" "no-jump-tables"="false" "no-nans-fp-math"="true" "no-signed-zeros-fp-math"="true" "no-trapping-math"="true" "stack-protector-buffer-size"="8" "target-cpu"="x86-64" "target-features"="+cx8,+fxsr,+mmx,+sse,+sse2,+x87" "unsafe-fp-math"="true" "use-soft-float"="false" }

!llvm.module.flags = !{!0}
!llvm.ident = !{!1}
!hpvm_hint_promise = !{!2, !3, !4}
!hpvm_hint_gpu = !{}
!hpvm_hint_cpu = !{}
!hpvm_hint_cpu_gpu = !{}
!hpvm_hint_cudnn = !{}

!0 = !{i32 1, !"wchar_size", i32 4}
!1 = !{!"clang version 9.0.0 (https://gitlab.engr.illinois.edu/llvm/hpvm.git 5c964d17b48694847d60e6755519cbfa0603770f)"}
!2 = !{%struct.out._Z9relu_nodePvm (i8*, i64)* @_Z9relu_nodePvm_cloned}
!3 = !{%struct.out._Z19batchNormLayer_nodePvmS_mS_mS_mS_m (i8*, i64, i8*, i64, i8*, i64, i8*, i64, i8*, i64)* @_Z19batchNormLayer_nodePvmS_mS_mS_mS_m_cloned}
!4 = !{%struct.out._Z4rootPvmS_mS_mS_mS_m (i8*, i64, i8*, i64, i8*, i64, i8*, i64, i8*, i64)* @_Z4rootPvmS_mS_mS_mS_m_cloned}
!5 = !{!6, !7, i64 0}
!6 = !{!"_ZTS6RootIn", !7, i64 0, !10, i64 8, !7, i64 16, !10, i64 24, !7, i64 32, !10, i64 40, !7, i64 48, !10, i64 56, !7, i64 64, !10, i64 72, !11, i64 80}
!7 = !{!"any pointer", !8, i64 0}
!8 = !{!"omnipotent char", !9, i64 0}
!9 = !{!"Simple C++ TBAA"}
!10 = !{!"long", !8, i64 0}
!11 = !{!"_ZTS5ret_t", !7, i64 0, !10, i64 8}
