%%
2501539
2506758
3021781
3316400
3105008
2539296
1877901
1836104
2112399
2195073
2504732
2211127
1956876
2249738
2145414
2816561
2924333
2646688
3333344
3288566
2279277
2194175
2980482
2715988
2104650
1883486
2145395
2339185
2514319
2603514
2649825
3145672
3057879
2319516
2071749
1862281
2206018
3452082
3394413
2009114
1665114
2801470
3744874
3577742
3247847
2501923
2990068
3685600
3054832
2923979
2941918
2768059
3634103
3041200
2712496
2750052
2609961
2924927
2848672
2825345
3587977
3325056
0
0
3352092
2663409
2779534
3500315
3149215
2413806
2269635
1706429
1528544
2549342
2928503
2070389
2090464
3000127
3249937
3098130
2629914
2333172
2896556
3269588
2909023
2035666
2146145
2830187
2656026
2412736
2912989
2561370
2533767
3074362
2508242
2696409
3300971
3148498
1965072
1700707
2554958
3189608
2759467
1583305
1173376
2117986
2869102
3010219
2977511
2312066
3256940
4189564
3446206
2562852
2172556
2721955
3943811
3580242
2210223
2062615
2993105
3201102
2755304
3131518
3261786
3347949
0
0
3093849
3524058
2989719
3061771
2845222
2667001
2728922
2542840
1992206
2245768
2820663
2581577
2712660
3168622
3723164
3643641
2926219
2723963
2576252
2839720
2766644
1839755
1485824
2619882
3530640
2892993
2376600
1957030
1981206
3113907
2957375
2662778
3042808
2884464
2692694
2760682
2520347
2397723
2850050
2395788
1728371
2755155
2921466
2814796
2634539
2614846
3170087
3537378
2934705
2313072
2115756
2474034
3370819
3230011
1500658
1298345
2358469
3137500
3029223
2673368
3029137
3235730
0
0
2649359
2754158
2651602
2641544
2459826
2296338
2557540
3304426
2433621
2127191
2595021
2533619
3364252
3417456
3631010
3467184
2675405
2681138
2828370
3007205
2166608
1456463
1388932
2337580
3147825
2713882
2491783
2862667
2938761
2894950
2429662
2418282
2526455
3090374
2514640
2252190
2761665
3056716
3015214
2087840
2074574
3272908
3124747
2612805
2655872
1856700
2111883
2510987
3038947
2936550
2355726
2528571
3150212
3175651
2099527
1859594
2245762
2399970
2603966
3021353
3071014
2317717
0
0
2522880
2704911
3004190
2454718
2065173
2336867
2671030
3363616
3287042
2188063
1926673
2500505
2932173
3295731
3293395
2504549
2579614
2394917
2500664
3062234
2454978
1824184
2015598
2004021
2566718
2742957
2344096
2524594
2885020
2335792
2356576
2029618
2206912
2395562
2526272
2839950
2796265
3416260
3106322
2441919
2934229
3929426
3380225
2655712
2481787
2415478
1951965
1998437
2446458
2438312
2441507
2531594
2285526
2307436
2517616
2067296
2064915
2470734
2050265
2087178
2919183
2902498
0
0
2590946
2528554
2692865
2437546
2809035
2323548
2032622
2668424
3236504
1911461
1640731
2294294
2642641
3188723
2874074
3015623
3001042
2494663
2691626
3375010
2727357
1893971
1954469
2250250
2549813
2845979
2912422
2862774
2904858
2682798
2401797
2268534
1974978
1972141
2218720
2156194
2243915
3116583
2485236
2537119
3276787
3598982
2950764
1896764
1970215
2596276
2387754
1793116
2099725
2427664
2805125
2881687
2201735
1574714
2033655
2129891
2493052
2998161
2308607
1743018
2398658
2349138
0
0
3461006
3266958
2567872
2408154
3067054
2705121
2253357
2754698
3654632
2991161
2602873
3073440
3038013
2355944
2584258
2773729
2368849
2092884
2098145
2962260
3054304
2439013
2321540
2347182
2433272
2797667
3468350
2904296
2480180
2393172
2373870
1913920
1796642
2107764
2856240
2891211
2611950
3254507
2911029
2929230
3683972
3440199
3279418
2469612
1309928
2190725
2805112
2540483
2270085
2266043
2265841
2240313
2468049
1675336
1550995
1362990
1925007
3284781
2950084
2502333
2232137
1996786
0
0
3728261
3422048
2482489
1623421
2361847
3025640
2178552
1906487
2686799
2878070
2875532
3339152
3110214
2411762
2054661
2218832
2433462
2148133
1670471
2514185
2984075
2720372
2555955
1802768
2343134
2680564
2649057
2869597
2997843
3248495
3357783
2564035
1878642
2245605
2703743
3391885
2908446
2486052
2112748
2371289
2932239
3237264
3256612
2739619
1761510
1637828
3134676
3502178
2721486
2402879
3082357
3005829
2844872
2095653
1365448
1637618
2095123
2597173
3641659
3458141
2207298
1662139
0
0
3694797
3845784
2662682
1378918
2283565
2640188
2360376
1726291
2439154
3425472
3578075
3596776
3040829
2160826
2337983
2550808
2285206
1878642
1591229
2254445
2559062
2976449
2655533
1726345
2029790
1919500
2138584
2907900
3496693
3395724
3728917
2868804
2317509
2883515
3256427
3113517
2862853
2429968
2425828
2528503
2943523
3030922
3056254
2923820
2205751
1541725
2198541
2942866
2701812
2350384
3093639
2995690
3314394
2974638
2033234
1918482
2061193
2488253
3116261
3381528
2200182
1792748
0
0
2863027
3104771
2943412
1868164
1520889
2554269
2714423
1704488
2249720
2316592
2348404
3196422
2927702
2423255
3010396
2343369
1875125
2291305
2404603
2304547
3151151
3189735
2536889
2299050
1729655
2106634
2458676
2216320
2935203
4006812
3870694
3169668
2680806
2977646
3126980
3037572
3086970
2340379
1363840
1735102
2056706
2949479
3389336
3375778
2877320
1775508
1971838
2994143
2724178
2315702
2782859
2889717
2866971
3287931
2543746
2236869
2255075
2310326
3402336
3500520
2679346
2167601
0
0
2856327
2385237
1953772
1485775
1306762
2181736
2934611
2787218
2790793
2811225
2801252
2913778
2701620
2594576
3249530
2873972
2095942
2225562
2240970
3036918
3519931
2715346
2318474
1994779
1503500
2134948
3195107
2760194
3094475
3268203
2467289
2714878
3302171
3213970
3264681
2862954
2453286
2304253
1854116
2469501
2929737
2800433
3117247
3642674
3526554
2382914
1502858
1994778
2573035
2596243
2625756
2021809
2093291
3079150
3087379
1864323
1694626
2835861
3186060
3034300
2937921
2094858
0
0
3605087
2084243
1599279
1505654
1457559
2017210
2129891
2378204
3028950
2798989
2845724
2847205
2655146
2303710
2695900
2858859
2228674
1659169
1658948
2092182
2802565
3053414
2602396
2489893
2533988
2936232
2893990
2233833
2497947
2865819
2299841
2717518
3511308
2710478
2307338
2692513
2456923
2353416
2611711
2520831
2417407
2347809
2785846
3514790
4095712
3093999
2292927
2398331
2593204
3030621
2392759
1659082
1489758
2493246
3019938
2410518
1887381
2197944
2832234
3404877
3161646
2675244
0
0
3651225
2610844
1641659
1130249
1418871
1790353
2241666
2391061
2440621
2315479
3110907
3690893
2593813
1928467
2531679
3465791
3327743
2851420
1970272
1609129
2448111
2914246
2744918
2270635
2554469
2589696
2318938
1717383
1966125
2046013
1928497
2669568
3098378
2243313
1698745
2855134
2535459
2535469
2540756
2712589
3216626
2399955
1713517
2125438
3019772
2973998
2485644
2425192
2767059
2503248
2490457
2220930
1897441
2202971
2595221
2234394
1604137
2015862
2923743
3143170
2363137
2310325
0
0
3172149
2665935
2414860
2034724
2051092
2071145
1949195
1820463
2405209
2372095
2765845
3141633
3149970
2501209
2169218
3094094
3908260
3541072
2338474
1571334
1544495
2681418
3188940
3089207
3105888
2727578
2724056
1492986
1316638
2368143
2433581
2500481
2465749
1457883
1852658
2731140
2326387
2488688
2950783
2839142
2491918
2324774
1846983
1306460
1757814
2223221
2460400
2999296
3023951
2791169
2924879
2801096
2038470
1856827
2478677
2886735
2468522
2044454
2645618
3243955
2878427
2772967
0
0
2651238
2974973
3007075
2896752
2452889
1649679
2172154
2550574
1788176
1958835
2128095
2205013
2598642
2258184
2214219
3167651
3375472
3214732
2704156
2205780
1937710
2320891
2509482
2905816
2821701
2882787
3005538
2333327
1674288
1870822
1716119
2435920
2508131
1732557
2764983
3539019
2719979
2479727
2838142
2689012
2311640
2651334
2511380
1528640
1266819
1524580
2639646
3503484
3196664
2532336
2632724
2457399
2024193
2166914
2893822
2684674
2498068
2685197
2878950
3028690
2291024
2025121
0
0
2951694
3111051
3207337
3660936
3311375
1795876
1904517
2749286
2403294
2903853
3043333
2103247
2046867
1844995
2135221
2793675
2513889
2177833
2479561
2860935
2270118
1983238
2647513
2935218
3044223
3144659
3383610
3071418
2125526
2519955
2536072
2549610
2438202
2240585
2755053
3000867
2465573
1804788
2377334
3036328
2801091
2775839
2944807
2528214
1201667
1497572
2898456
3182996
2862212
2760292
2541532
2418018
1352105
2114664
3450092
3324598
3235140
2761344
2418099
2088455
1989834
2619125
0
0
2667131
2887480
2536959
3108997
3373389
2286564
1984358
2560710
2594140
2554849
3033391
2594966
1983783
1821637
2491673
3531196
2793548
1507696
1986664
3234068
3198414
2766696
2978872
2859074
2359878
2750408
3072565
2901035
2688689
2633407
2347704
2887384
3137390
2978896
3197045
2979443
2461587
2393403
2494064
3058143
3546599
3030132
2871009
3138610
2285766
2000399
2948367
3014682
2617775
2458193
2308984
2724171
2210790
2780257
3859743
3912786
3181051
3011791
2667565
1902522
1230739
1730101
0
0
3353389
3149541
2140268
2779973
3496039
3227508
2812675
2943061
3018532
3486567
3591721
2387481
2257327
2746069
2819829
3676534
3219342
1877164
2993227
3732720
3203006
2870507
3187511
3115144
2063449
2442263
2902987
2739238
3107910
3664346
3575282
3638681
3210193
2676100
3219027
2737139
2247949
2442373
2730838
2530734
3061338
3220811
3224987
3534821
2825451
1991992
2876629
2824506
2457828
2344667
2910748
3520196
2766628
2354818
3605505
4140000
3083865
2328756
2112522
1567162
1113897
1854241
0
0
2426015
2696169
2092169
2119802
2809443
3373016
3886912
3196254
3207989
3506815
2940737
1901730
2052145
2945203
3301476
3457718
2834416
2794987
3173292
3339935
2768635
2997682
3601616
3215762
1977910
2161802
2491405
2776986
2947685
3600074
3609362
3861024
3732388
3224172
3200448
2739667
2021647
1856384
3214711
3512469
2736494
2890085
3525485
3678471
3338383
2529314
2934421
3174177
2751799
2558652
2815841
3505381
2829133
2443877
2685258
2808087
2585330
2334472
2538311
2633608
2528389
2608105
0
0
1900483
2552272
2383449
1911621
2173084
2993300
3771446
3618097
3731920
3626294
3101549
2056159
1375453
2249802
2811590
2500791
2535977
2917072
3604234
3355165
2994198
2989454
3045247
2902753
2504153
1572229
2262557
3004830
3117298
3569554
3541723
3902677
3241802
2809606
2919555
2398764
2313133
2820381
3316897
3110355
2693422
2705371
3207480
3912831
3226326
3014061
2732447
2300018
2571079
2200157
2742905
3548401
2775040
1866925
1398099
1932251
1847063
1834842
2109541
2388723
2277744
2798853
0
0
1787846
2052655
2700324
2187718
2409412
2653120
2692191
2618313
3257967
3496253
3579993
2943269
1862671
1660174
1428362
1945271
2620585
2963725
3218588
3633733
3184074
2553920
2701137
2863015
2527750
1723087
1943229
2757528
3233200
3052003
3382423
3460148
2750496
2565837
2744562
2497847
2239435
2505510
2773918
3067089
3072322
2712287
3011504
3385672
2987508
2620944
2057438
2025609
2811028
3027449
2936279
3333493
2880434
2116132
1661591
1622182
2275075
2463417
2842391
3396358
3096524
2733203
0
0
2458742
2807089
2971182
2578187
3045339
2536920
1772456
1924424
2668395
3003112
3346873
3173094
2524064
1596206
1366808
1614830
2348641
2391604
2985347
3724573
3462031
2569275
2458919
2327349
2591817
2099974
1775724
2807469
3614215
3171812
3126162
2854488
2933972
2575004
2695832
3392111
3059675
2711397
2740233
2204775
2446814
2680502
2592357
2840961
2392849
2071355
1913643
1943632
2464861
2477458
2588596
3267826
2778283
2507806
2301316
2176513
2741220
2806093
2857782
3737027
3118391
1953201
0
0
3068236
3536781
3046723
2505499
2956077
2663642
2115024
2162762
1700244
2280533
3009294
3415720
2711230
2274364
1994706
1912964
3105690
2960379
2466719
3168044
2921019
2302215
2227048
2145535
2605116
2704828
2638230
2758999
3148438
3385905
3177152
2897275
2504564
1997921
2331878
3478184
3162822
3141440
2565636
2399380
2427416
2406230
3057939
3037416
2103814
1370790
1641251
2412880
3394703
3020310
2453246
2402357
1981368
2159887
2786736
3196013
3420610
3643821
3005727
3648107
3586097
2331188
0
0
2192312
2909384
3110479
2936988
2745609
1771495
1333852
1823907
1881057
1654052
2814934
3088168
2346323
2516786
2722683
2775423
2999221
2436988
1723926
1808383
2471985
3085372
3139787
3139917
3084769
2888665
2698613
2929312
2930493
2975982
2745332
2978778
2920144
2863763
2863603
2853490
2939828
2645023
2382305
2143223
2297686
2661827
2608737
2983694
2187027
2020083
2355964
2357182
2553981
1896705
1712115
2243698
2453185
2134267
2702777
3351924
3402005
3656657
3333147
3563793
3351881
2120968
0
0
1822785
2103239
2972507
3042986
2971967
2469827
1485617
1567366
1585813
1544913
2613455
3049205
2106303
2148418
2996920
3284821
2828362
2875972
1935958
933119
1603873
1924027
2607749
3468608
3636007
3486576
3218591
3014531
3395973
3015904
2416326
2723042
2633259
2446005
2843956
2748177
1898775
1551636
1870853
2281264
2783143
2529864
2890751
2672569
2159173
2344106
2672334
2682323
2783073
2327822
2221427
2837326
2976454
2248174
2747575
3547969
3302317
3303686
3178652
2515696
2619182
2066619
0
0
1772523
1575327
2381481
3172085
3636790
3080817
1794982
882588
1799190
2391830
2953203
2986799
2084367
2438288
2890545
2853628
2894705
2756327
1566300
566137
909372
1573204
2177724
2749088
3404715
3467417
2535326
2489802
3159567
3397679
2645676
2056397
2281093
2739853
3223039
2944469
2025923
996580
950446
1769184
2139271
2241015
1958575
2064107
2336132
2672642
3033491
2012311
2026244
2326098
2848076
3412982
2952752
2546412
2413805
2903661
3004921
3131380
3074943
2511951
2404900
2871136
0
0
2597660
2203686
2150722
2354933
3090784
3742094
2432046
1741643
2548220
2862399
3232145
2871109
2208509
2790366
3096437
3147032
3042041
3326174
2701200
1260214
892010
1009229
1173999
2441952
3054416
3209462
3246855
2382816
2324422
3276936
3338608
1952324
1572960
2227401
2172474
2079229
1804430
1535172
1813775
3000354
3238260
2758204
2242739
1782683
1916207
2372256
2314364
2294261
2665188
2719690
3555431
2998429
2557094
2757763
2246070
2882367
3040658
2239049
2762200
2829984
1998103
2512455
0
0
3260752
2758894
1867678
2232683
2972191
2663670
2255036
2122180
2436070
3213241
3926058
3257467
3088831
3659699
3854339
3462996
2920760
2929091
2225684
1175324
1292625
2032611
2356464
2384143
2051198
2379122
2764618
1818175
1202265
2609106
3325556
1974933
2052906
2572891
2252173
2083724
2302942
2358527
2128250
2492441
3295253
3273991
2244501
1695963
1715339
2096245
1819177
2300409
2362284
2569499
2985653
2318687
2175516
2635984
2078015
2443024
2836461
2367471
2466308
3322229
3003302
2770849
0
0
3001428
2582229
1988207
2300697
2355619
2398646
1798343
1898398
2303098
2669723
3052763
3102264
2822104
2499043
3205842
3878666
3436923
2858318
2105785
1729483
1592038
2256427
2588053
2587164
2297693
2826436
3387623
2527506
1384135
2395251
2662476
1896896
2511060
3168159
2545907
1812194
2482607
3038498
2665295
2431437
3152518
3638811
3372249
2447442
2013525
2148392
1332005
2195684
2657899
2248863
2726569
2093460
2465153
3246078
2587592
2084833
2720470
2420713
2194314
3087386
3238645
2111193
0
0
2421197
2556654
1947185
1974012
2557361
2317134
1636000
1976213
2041005
2407393
2925741
3306965
2693555
2007587
2540467
2901644
2980865
2260637
1555877
942233
1312017
2792494
3512244
3033466
2658588
2684357
2639363
2075632
1843317
2349234
2467910
2425875
2684887
2664551
2748254
2914639
3370368
3613642
2643017
1735094
2216300
2647896
2968814
2999583
2859562
2968827
2432229
2615726
2993421
2610207
1834531
1697427
2129247
2767358
2870987
2270204
2368030
3322189
3169900
2937316
2464395
2303601
0
0
2044557
2063614
1956137
2275270
1873364
1786894
1996497
2732540
2955756
3022942
2815636
2828718
2280894
1949254
1967628
2764431
3060070
2668674
2497823
2165268
2431845
2733702
2893281
3177280
3266565
2636284
2280840
2865320
2894262
2876760
2682983
2834587
2971586
2429623
2511693
2676403
2912274
3525822
2835230
2108098
1934724
2758259
3718025
3855858
2976677
3369203
3482975
2932662
2983447
2294959
1750612
2112726
2636329
2683997
2639341
2519951
2766775
3760672
4000350
3261510
2068678
1738051
0
0
3079881
2878119
2046304
1677287
1485679
1798585
2051167
2576318
2643418
2847631
3383853
3144980
3152846
2897325
2217348
2521310
2783399
2792002
3002976
3238985
3106333
3624422
3860762
3195436
3445598
2721231
1535200
2021008
2884229
2714010
2372935
2559643
2882294
2327227
2897328
3130948
2981793
3772872
3329888
2657899
2787471
2877092
3096615
3253427
3133197
2900535
3562773
3217089
2500643
2144543
1593412
1673661
2109195
1938445
2134424
2678337
2828641
3603725
4029839
3552366
2703633
2247001
0
0
2786236
2230430
2081739
2092673
1596583
1782814
2255689
2638385
2857356
3090566
2911688
2896359
3598758
3203790
2527382
2832441
3650698
3690713
3617368
3908327
3629996
3321669
3172398
2588086
3041220
2877071
2061904
2306239
2459638
2900075
2668294
2459432
2919587
2146572
2496364
2940393
2727565
3739400
3414553
2730696
2643192
3090680
3525252
3453323
2314936
1963255
2898579
3033742
2765952
1908837
1697781
2520453
2953990
2121897
1554424
2267791
2494793
2620103
2824487
3231501
3784469
2803155
0
0
2270305
1983531
2135058
1581637
1319860
2169002
2380926
2703540
2554084
2511942
3236556
2962403
2679302
3038211
2728098
2932156
3545675
3705807
3372964
3743468
3850368
3824607
3270516
2012587
2847907
3327746
2790197
2380152
2223783
2502234
2343441
2987853
3009733
2002292
2794959
3097788
3256391
3863743
3189077
3022792
3114903
2571503
2879532
2848541
2231839
2298293
1976723
2825808
3176218
1969554
2373967
2774911
1871417
1549583
1714704
2042420
1682962
1824416
2460549
2786788
3567971
3556513
0
0
1735950
1558456
1743795
1797588
2156949
2176017
2282493
3307360
3413748
3217620
2859813
2549078
2673446
3024199
3091517
2523011
2422746
2638622
3198784
3450830
3601925
3219630
2929657
2097204
2101950
3197935
3463102
2885006
2378997
2468883
2719658
2702808
2700441
2204490
2231165
3161581
3301171
2792475
2453063
2908146
2598295
2464146
2958366
2625980
2062579
2141695
2219870
2426220
2799970
2523618
2569997
2792427
2664127
1843424
2153473
2329766
1796363
1792332
2992466
3062673
2698698
2541538
0
0
1757526
1610040
1713111
1557521
2192480
2859346
2514703
2852624
3158765
2658246
2747874
2743737
2157593
2835324
2900611
2298878
2253283
1793610
2267117
3171961
3245658
2744031
3022739
2521564
1661293
2289249
3251713
3122271
2571194
3086837
2332926
1939339
2963970
2700760
2716729
3323494
3502334
2842270
2548850
2779084
2846245
2947532
2463272
2255793
1718750
2765992
3159215
2219494
2221248
2688366
2833870
3001834
2067521
1813972
2523053
3256675
2065025
1834191
3395168
3147755
2204484
2862320
0
0
2810943
2322083
2254135
1745176
2309967
3254080
2860571
3267085
3271653
2735133
2251625
1695755
2122233
2704772
2663618
2500089
2004629
1757567
2390134
2955830
2704452
2644834
3117386
3200443
2085902
2035743
3365988
3498782
2580642
2240722
2071448
1838947
2561705
3086568
2825071
3127605
3222734
2788276
2856791
2971467
2792935
2643628
2545561
2342967
2033129
2508447
2986730
2412023
1804164
2531620
3394616
3111064
2891912
2473769
2950716
3623492
3322925
2732299
3200611
3267372
2163600
2380186
0
0
3105902
2987572
2901488
2125902
1810485
2539235
3018345
3487089
2748430
2438835
2772177
2295683
1717293
2131202
2632088
2304310
2431567
2572096
3153275
3351940
3005377
3498079
3552265
3544135
2655163
2404273
3194473
3725186
3090251
2155936
1691862
1811197
2696659
3675411
3311222
2854497
2879433
3638527
3845145
2971494
2290897
2921385
2701350
2535100
2906588
3005254
3273490
2408413
1596480
2778049
3712738
3008353
2574026
3138851
3172545
3228366
3653779
2920280
3383903
3242356
2123749
2667719
0
0
3033285
3349579
3468583
2694701
1980245
1994470
2774404
3582282
3283611
2436383
2738071
1877999
1480371
2204078
2626882
2090683
2521084
3473395
3215295
3074765
3381178
3663320
4576689
4225839
3530975
3274797
3282214
3308383
3292206
2000989
2047180
2265217
2676982
3662873
3574368
2830118
2754620
2820214
3502126
3511257
3073021
3309486
2679619
2900215
3399121
3410641
2190816
1984673
2380219
2995355
3255433
2425218
2746302
3411817
2493481
2474779
2925346
3061104
3787552
3145008
2038324
1526230
0
0
2801298
2886893
3074587
2818187
1942885
2823886
2687647
2815514
3037365
2745180
3330604
3022125
1969632
2273249
2569758
1604038
2009279
2706335
2847649
3712446
3553267
3132671
3628250
3815899
2754661
2988889
3217986
3167105
2808857
2273527
2653599
2949750
2131245
2547693
3200354
2998314
2429490
1878357
2990136
3748043
2884004
2673011
3058645
3083985
3115378
2875933
2131177
1961687
2937905
3512059
2546256
1320310
1723130
2328145
1794730
1479590
1566271
2380670
3464146
2871420
1463476
1782519
0
0
3136741
2547646
3094320
2913214
2060304
2495636
2795962
3232826
3408538
2616044
2707328
3119936
2083710
2604828
3389725
2826469
2597230
2664116
2777482
2744762
2897241
2524239
3017773
3386586
3058085
2902442
2473904
2162351
1884500
1661235
2098346
2453418
2193017
2460566
2757332
2835305
3037981
2278937
2446962
2986289
2287160
2181738
2817492
3075911
2537692
2752674
2818362
2436473
2910116
3489780
3094760
2023810
1600878
1675914
1716512
1368342
1411595
2026881
2962035
2290757
1227159
1619893
0
0
3261987
2879108
2749900
2820805
1939059
2311144
3317032
3272181
3293313
2491127
2672479
3413520
2597553
2826394
3696383
3327152
2827342
2541062
1882170
2434373
3257095
2984494
2774534
2847967
2641051
2228226
1679191
1628071
1779905
1971984
1794526
1990938
1777660
2190549
2654336
3107678
2775324
1868031
1977883
2417484
2093378
2261277
2960060
2883837
2142167
2763136
3701280
3326925
2969515
3582096
3184381
2278793
2000221
1897719
2240177
2700046
2534251
2684868
2586874
2166467
1824188
1997592
0
0
3820675
2896736
2473253
2949970
2262769
2067912
2967096
3383750
2891320
2328501
2638634
2892467
2755477
2733827
3323390
3432433
3450450
2329335
1436593
2195224
2763152
2384830
2306558
2656511
3073404
2392398
1772403
1608778
1647000
1979535
2139602
2039134
2258471
2605436
2830544
3051632
3047906
2405845
2118546
1998052
1641863
2291273
3275327
3013806
2597421
3213812
3911470
3474968
2664733
2687183
2855015
3363046
3116847
2452319
2966508
3650865
3233209
2802864
2720604
2060857
1784896
2052489
0
0
3347330
3134840
1603887
2265915
2623516
2494834
3400932
3440557
2449402
1999173
2374144
2553534
2860926
3204330
2940424
2684336
3420668
2661914
1334015
1692505
2948994
2901357
2261717
2566117
2082204
1862382
2122650
2136865
2013948
2195004
2610472
3143824
2690231
2202910
2220953
2842694
3090073
1927526
1958706
2323601
1671041
2048945
3010229
2829630
2673928
2823939
3279792
3560984
3193886
3087583
2982029
2993999
3150172
2879845
2818239
3410211
2758803
2688572
2254183
2184995
2791922
2955218
0
0
2853905
2754851
1678373
1555460
1952596
1944996
2549186
3121795
3090954
2538938
2146759
2455380
2598376
3106331
3046253
2479646
3444184
3040557
1708957
1666295
3179348
3508491
2654129
2016252
2556697
2603307
2121953
2310560
2707315
2452472
2477805
2748971
3024029
3073486
2220290
2472245
2692094
2194842
2866614
3175704
2336358
1870936
1997456
2381391
2637697
2457409
2603931
3325943
3530396
3409631
3132626
2913802
2734791
2596439
2847909
2826089
2384964
2308366
2157128
2785439
2273475
2761090
0
0
1613797
2816382
2244270
1660237
2248359
1847945
2007210
3485169
3423014
2339672
2329830
2664190
2116182
2297653
2869977
3104933
3197784
3225785
2570014
1712978
2577080
3326691
2736481
3140870
3104647
2624142
2264757
2090524
2278444
2491658
1985536
2107681
3086861
2762194
2179033
2549711
2809158
2575543
3145365
3311417
2874516
2133546
1792669
1852971
2198468
2490163
2004808
2813933
3996042
4279403
3964181
2608036
2245619
2402802
2419012
2722473
2571577
1859226
2235078
3200600
3173426
2821691
0
0
1520202
2654180
3083190
2455480
2065158
2002382
2180353
2168059
2044215
1940473
2622786
3388075
3083154
2775577
3338309
3666463
3079825
3240828
2976235
1894480
2697900
2891474
2269165
2348138
2971076
3030714
2426288
1555022
1263224
2174074
2634038
2587604
2557690
2240144
2586707
3037350
3093854
2889376
2692023
2564155
3606827
3136801
2306481
2570632
2532962
2170545
1924214
2373114
3453794
3477063
3337124
2649208
2429744
2092037
1801420
2769416
2589913
1901489
2712383
3361489
2738778
2252369
0
0
1766511
2934468
3442808
2639328
1768214
2383851
2562242
2434436
2083817
1133216
2115285
3498514
3177948
2333864
2696434
3550890
3695349
3593088
3376051
2212295
1401262
1651638
1449629
1885451
2750834
2627826
1694862
2040302
2081633
2212268
2315900
2641894
2871699
2767718
3187307
3581505
3200485
3101039
3054603
2538835
2995887
3524691
2916387
3034506
2659219
2155631
2119627
2544621
2470428
2765637
3248873
2041346
2065772
2828678
2538445
3038276
3031646
2366799
2820881
3199251
3351316
2969885
0
0
2539717
2278549
2429022
2266617
1781347
2004608
2844392
2745941
2173943
1370468
2355005
4019202
4127865
3432637
3197201
3364908
3458421
3774349
3381847
2065266
1535357
1528159
1194997
1247155
2192534
2306016
1762484
2055154
2133204
2576080
2626072
2676728
2487362
2515809
3068891
3869438
3625041
3121851
3067521
2747451
3607619
3691966
3600614
4281633
3243357
1786400
1920503
2514902
2320043
2470121
2845418
2183130
1978881
2712645
2858476
2413944
2478877
2945211
2770283
2450312
2789392
3038005
0
0
2293835
2509739
1905381
1756825
1872599
1885877
2556828
3048761
3425532
2140634
2288177
3475490
3359633
2421425
2275443
2919961
3192652
3372638
2858973
2220941
1821875
1539818
1481423
1926616
2675160
2960925
2922426
2792124
2619343
2956459
3020563
2736109
2505125
2222140
2486440
3364562
3494040
2546392
2721643
3443717
3616969
3060855
3216716
3795429
3752705
2755444
2157186
2531400
2671155
2734249
3341100
2470576
1632987
3162802
4050092
3577971
3515393
3504976
2669481
2222611
3009656
3707652
0
0
2736040
3267142
2519646
2541924
2521604
2163252
2300228
2521985
3146179
2494072
2372988
2822306
3249577
2876611
2684761
2700701
2292603
2126920
2303522
2197746
2245214
1821456
2058835
2435771
2990330
3054216
3214606
3182506
2438350
2662772
2690325
2731810
2391948
1277988
1294568
2612468
3020530
2443209
2409792
2902026
2922244
2658055
2766115
3076116
3476744
3562512
2871400
2695623
3184873
3203179
3351760
2335513
1581404
2215368
3116204
3325012
3038380
2949829
2532867
1667387
2365898
2985746
0
0
2256801
3214315
3454031
3020513
2540624
2720804
2476529
2249401
2931467
2317327
2147699
2655129
2606633
2439266
2161294
2401707
2452136
2736234
2333004
2603428
3302673
2462537
2102217
2817914
2814789
2649546
3224077
3080498
3045300
2842277
2568155
3002020
2855627
2287418
1664930
2373462
3202767
2170133
1647695
2979514
2879852
2083431
2056458
2118598
2996871
3826596
3364989
3263642
4012172
3872174
3168692
2630920
2166853
2343566
2846783
3433544
3339406
3083242
2643252
2261703
2300668
2135846
0
0
1600798
3218372
4103798
3482549
2977641
2869692
2149312
2575569
2844875
2638822
2945718
2689894
3065225
3030126
2996258
3064640
2902115
3229428
2595778
2388258
2866040
2319329
1884204
2122373
2448627
2384691
2447320
2337606
2885370
3010666
2791971
1692748
2304670
2900537
2508813
3211792
3472533
2220544
1461445
1836648
2060177
2387212
2200695
2321874
3263719
3825646
3251185
3483245
4145552
3719346
3529024
2929174
1810553
1529288
1792724
2321395
2081019
1785199
1898322
1891903
1892245
1646561
0
0
2074432
3146573
3375188
2646045
2142370
1983322
2512478
3345094
3317654
2455021
2597582
3209804
2749643
2685433
2759348
3318446
3684967
3746612
3051272
2483237
2703101
3246405
2837971
2441653
1978349
2085858
2394036
2807689
2889273
3334980
2769991
2209176
2781414
2713902
2787608
3665312
3347060
2096760
1481102
1672849
2511845
2528282
2171988
2350254
2668696
3729035
3880192
3600522
3704607
3797154
3565930
2479853
2259082
2471124
2171574
1697501
1513127
1970387
1696033
1577873
2300333
2008359
0
0
2233756
3368253
3154017
2713420
2720116
1954070
1990387
2808028
2664887
2280573
3247206
3409300
3254268
3219084
2951533
3294728
3692830
3056850
2518269
2321317
2288197
2405841
2815703
2552280
2266388
2720244
2859157
3049542
2750287
2376962
1936839
1974715
2654522
2653810
2826656
2989353
2500292
1738648
1189285
1720518
2985004
2941673
2282741
2097244
2125032
3274588
3676591
2950949
2950457
3000016
3063084
2495230
2070360
2198145
1874161
1790763
1084310
1518427
1851059
1914166
2103818
2255974
0
0
2706148
2502547
2368654
2658992
2551040
2246808
1948682
2203426
2565027
2420386
2614570
2944823
3255136
3169378
2710399
2796968
3186254
2772296
2156333
2054905
2410195
2229369
3149284
3385692
2577730
2652612
2751011
2540872
2875031
3001960
2564494
1923181
2668803
3162397
2858383
2820957
2795344
2081990
2047746
3103878
3821563
3093571
2251953
2056349
1972283
2759513
2646160
1881359
2204685
2693934
2420184
1723893
1805055
2324691
2865085
2351362
1006614
1884700
3060279
2444272
2050847
2410606
0
0
3173437
2530768
2971351
3170581
2949090
2792171
2704420
2595959
2459170
2064785
2242768
3107630
3402272
3190824
2758589
2384067
2532964
2324250
2019640
2602338
2396302
1872366
2823716
3251525
2616202
3221591
2971580
1713241
1628049
2139618
2135277
1589584
2027136
2960082
2774713
2447725
2081985
1902869
2386701
3580235
3982752
3301224
3243984
2478567
2005760
2488753
2588807
1789973
1866910
1954948
1888120
2060097
1558136
1688088
2470458
2953987
2291572
2592478
3622628
3173735
2239191
2704809
0
0
3661193
3275822
2948026
3292212
2082461
1830786
3041970
3319346
2878238
2538311
2955444
2872380
2758734
2472909
2757969
2869685
2050566
2007584
2399490
2565853
2390901
1927857
1998407
2545920
2751908
3204828
2660991
1874361
2142187
2698152
3263544
2745678
2448984
2606553
2293095
2348068
2627171
2435792
2784641
3198182
3402397
2818563
2438934
2441526
2830728
2968332
2647191
1885416
1444060
2135222
2119552
1603911
1604378
2061639
2628230
2988707
2640043
2826695
3806337
2936864
2708712
3127402
0
0
4102035
3842553
3349398
3472461
2650443
2099809
3121762
3621927
3297275
2367244
2510418
3021654
2709898
2376709
2891225
2279969
1971641
2115043
1835622
2150206
2272994
2084902
2090692
2340232
2708339
2789742
2719036
2635530
2311064
2595950
2469391
2288458
1909565
2200788
2071248
2245135
2123947
1870598
2187374
1904129
2255295
2128361
2231577
2454731
2652670
2801449
3148460
3030422
2263584
1971265
2449842
2438762
2046296
2121716
2057006
2312830
2751895
3209588
3874850
3660529
3565932
3920954
0
0
2925155
2678883
2453278
2604376
2222109
2140824
2430302
3115537
3453791
2482786
2465945
2675856
2138717
2077611
2562198
2284810
2064145
2175831
2048854
1787135
1757762
2291327
1931139
2320678
2657077
2355461
2505104
2810300
2980777
2926436
2816316
2311933
1900580
2095296
2571911
2826351
2760728
2304084
2149557
2044170
1767818
1782289
2024773
2356146
2843066
3130593
2898579
2809748
2978184
2747233
2649518
2674263
2138145
1994458
2312905
2301545
1941565
1948254
2821150
2903409
2700075
3004000
0
0
2386860
2170181
1555485
2064027
2650648
2161686
1981187
2306149
2860115
2320926
2311367
2720722
2931345
2439191
1627511
1774248
2577543
2501320
1907810
1799444
2035191
2515462
2982316
3028091
2998300
2479444
2488180
3498531
3294254
3244956
2736778
1234815
998717
1473390
2053975
2776848
2606332
2209716
3008046
3114189
1887922
1430236
1847583
2308260
2080968
2592869
3373823
3308588
3180384
2118095
2632372
3770299
2840120
1948736
1588064
1734148
2062691
2308371
2279247
2466650
2787543
3009925
0
0
1649437
1051300
1383818
2201217
2411003
2450662
2008869
2088278
2815727
2534861
2056593
2432013
2832261
2415938
1863104
1483529
2058273
2193671
2152595
2825826
2405820
2694674
3549750
2591118
2727149
3356935
2961572
3311601
3139332
2731869
3036478
2082262
1392733
2169724
2540798
2524607
2635791
2837305
2704094
2733414
2681664
2266170
1780166
1863695
2173025
2841571
3208114
2599489
2488535
2040160
1914390
2945698
3497930
2698497
1160207
1600000
2806517
2601631
1717210
2353901
2612507
2260052
0
0
2583875
2344714
2158425
2296866
2583433
2154252
1870835
1677784
2043033
1935992
1936079
3334904
3220066
2734688
2339309
1883400
2382590
2695615
2744514
2769281
2254147
2469385
3062912
2277871
2388560
3332557
3433904
3741134
3558402
2983498
3194927
2700001
2183198
2674438
2274752
2239887
2372632
2171048
2454554
2487708
2072483
2616295
2273370
1458945
2085380
2540045
2991396
2988868
2372044
1364229
1503769
2331361
3572178
3504569
2126137
1616072
2184552
2653137
2668050
2790420
2926023
2536016
0
0
2534440
2915441
3016245
3267420
3181784
2576214
2207573
1668999
1538185
1760506
1734792
2234890
2579087
1863605
2186970
2572134
2640326
2474242
3193747
3674840
2842463
2096890
2493651
2258657
2413084
3557329
3450235
3039958
2642301
2508279
2785140
3391803
3262175
2743545
2203792
2410972
2742177
2540028
2098592
2229612
2385267
3218234
3189303
2148916
2214302
2678056
2416043
2369783
2740683
2403786
1413698
1750293
3051864
3555518
2749397
2059011
1605854
2349976
2991251
3120493
3555158
2781602
0
0
2316324
3337174
3279999
2404768
2474367
2361206
2058843
1905470
1720768
1238647
1294375
2422012
2641704
2355979
2320636
3282306
3287575
2915904
3525392
3571094
2872574
1814444
2241851
1999226
2701610
3667978
3469674
2830544
2491302
2220098
2878382
3759068
3190312
2302254
2325064
2276506
2665012
2621561
2437535
2902616
2553360
2488159
2582540
1954320
1998230
1708302
1659741
2228784
2676713
2597950
1683383
1258398
2197200
3081299
3730216
2927742
1375531
2072178
2960455
3682755
3718834
2943299
0
0
2758391
3036809
3320506
2905947
3081629
3699770
3268312
2286407
1778765
1828176
2309436
2420448
3248142
3069301
2807064
3443278
3112175
3177155
3690328
3674559
3156512
2294186
1675460
2220217
3179152
3204050
2669475
2573313
1898942
1737787
3066989
3587735
3126599
2514995
2488223
2798790
2663191
3104959
3194311
3197762
3169268
2946309
2700890
1982798
2201821
2404688
2392421
2260399
2957514
3256610
2102812
1405411
1581715
2075142
3083102
2946701
1834355
1956118
2889376
3445359
2876217
2749745
0
0
3138803
3018215
3089723
2759406
3059219
3795579
3660046
2811489
2200258
2112354
2335702
3063351
3125740
3156323
3033504
3585001
3416124
3704736
3818716
2903952
2815461
2383374
1471248
1489116
1798809
2002997
2470627
2797523
2743737
2536771
2846840
2797199
2638271
2369208
2852253
3378703
2203552
2617684
3560810
3376929
3344974
3109881
2373818
1864077
2543923
2480143
1725804
2218290
2945663
3347424
2836210
2372392
1705596
1516081
3226721
3504246
2493288
2302473
2583000
3456646
2834341
2044073
0
0
2639953
2960031
3548554
3486984
3894336
4341275
3935476
2708184
2571118
2279304
2475727
2954921
3125591
2381933
2120340
3314206
3714573
3798422
3569037
2181274
1898769
2166136
1622976
1521583
2280602
1943054
1344724
2034341
2247017
2555846
2853459
2306603
2628930
2466149
2093922
2541288
2790040
2997048
2899879
3371255
4031892
3550614
3188442
3106910
2933834
2433487
2426136
2251678
2312683
3104136
2926438
2046669
1929340
2524502
3186935
3188881
2402953
1827935
2022168
2512901
1763514
1181643
0
0
2941440
2351419
2497105
3387849
3732664
4102720
3901617
3319051
3267545
2700367
1861769
2273090
2699592
2612809
2517929
3270652
3872075
3977531
3094812
1817156
1397519
1819332
1939869
1918970
2128457
1652235
1503324
2136772
2571462
2503575
2508766
2165947
2085449
2098053
2224646
2125914
2280100
2408514
2627194
2865153
3420664
3303023
3376495
3240315
2936898
2456164
2022840
1911427
1953964
3017528
2981122
1792519
2234692
3003515
3627016
3318099
2764491
2504306
2325927
2023623
1790963
1762367
0
0
2948995
2735159
2998379
3088387
3324378
3721261
3808779
3263921
3058074
2987743
2415052
1832969
2389802
2930857
2625390
3185305
3682788
3683411
3251108
2300025
1717115
2189416
2140698
2411348
2527451
2879586
2158132
2111704
2298749
2211260
2482570
2336814
2481991
2451651
1584833
1147355
1905744
2950670
2720372
2272015
2774895
3230202
3316605
3472888
3809308
3070317
2347027
2981096
3138115
2934757
2434440
1304368
1281880
2905169
3548075
2707984
2651569
3015572
2741069
2137486
2038328
2363381
0
0
3783385
3548969
2299489
2168853
2782165
2762032
3311023
3542584
2572429
2159157
2087479
1728663
2181821
2677491
2843175
2836857
3163744
3829515
3617314
2587205
2173362
2229964
2686075
2939152
2351452
2615819
2471607
2770472
2547101
2201566
2493396
2973937
2990754
2953648
2612765
1537808
1060636
1628700
2289271
2445565
3035189
3220184
2689990
2722121
3287508
3252388
2571551
3092011
3451555
3407615
3155100
2164929
1067943
1857792
2478648
2164476
2750342
3613130
3518549
3292496
3365500
3043247
0
0
3835847
3268485
2315747
1799767
1831547
2447703
2736334
2965249
2896336
2118342
1543012
1762314
1817913
1690880
2208660
2660647
2580495
2787533
3272725
3144500
2780424
2803907
2927002
3106613
2664629
2785120
3303973
3084427
3131692
2885237
3189605
3464792
2843220
2923933
2511062
1857355
1960724
1981343
2114024
2617631
3329143
2907325
2412440
2402143
2597994
2705470
2873256
3211942
2864325
2989820
2727466
2582516
1765475
1462514
2417550
2346679
2002411
2551950
3354772
3868683
4318364
3696741
0
0
3496253
2953327
2124577
1839642
2116815
2228310
2458868
2466222
3128242
2650028
1369651
1521205
2075356
1825693
2181832
2433995
2138459
1856077
2714270
3011916
2481455
3034213
3400318
3514393
2532175
2353091
2904828
3316442
3261736
2646600
2760638
2712067
2276893
2401265
2356564
2379376
2780997
2289719
1481199
1897971
2815833
2747447
1892929
1612031
1952843
1878503
2620479
3330580
2811095
2658974
2628087
3430021
3135033
2356919
2584835
2770864
2395298
2566556
3335560
3578524
4008077
3262726
0
0
2786515
2920617
2760782
2728382
2331252
2487386
2542686
2959201
3139964
2658849
1751960
1798856
2438113
2124565
1851998
2494864
2434432
1782354
2437498
2862342
3120308
3557821
3941493
3557202
2899068
1700671
1864847
3053420
3682836
2796808
2868121
2718183
1784064
2025987
2483414
2214877
2434467
2667114
2005562
2139711
2516046
2481565
2632930
2616879
2163793
2199857
2688356
3470827
2664070
2693879
2813446
3006905
2982415
2330034
2438570
3255835
3133073
2636136
2451096
2678352
3099726
2573420
0
0
2847868
2997979
3569702
3226892
2699505
2153569
2626300
2930105
2845388
2506671
1690041
1934016
2693234
2600030
2628732
3046783
2598781
2341142
2832162
3053287
2975646
3033062
3898634
3563479
2817315
2174881
1588614
2366436
2598447
2160278
1991758
2410635
2497073
2581763
2539825
1631956
1856848
2769705
2983398
3106475
2578551
2510818
2817111
2337159
2957647
2746635
2359655
2889259
3013060
3125182
3608551
3110915
2551992
2126837
2379905
3115242
3586443
3198153
2722417
2689093
2453187
2219224
0
0
2195776
2762960
3847971
3493200
2193772
1769328
2204218
2986322
2887897
2068759
1383489
1862656
2281240
2405757
2710685
2741460
2531571
2615868
3429217
3506398
3390350
3354486
3314876
2444991
2540232
2200918
2324852
2532942
2144349
1872217
2269905
2872555
2799496
2966118
2510835
1722306
1961851
2533543
2707050
3730042
3162510
2910417
3582451
3164215
2733537
3391166
2514451
2368004
2769436
2436271
3224644
3288395
1844846
1595964
2149935
2527338
3098491
2419299
2028345
2361849
2097595
2396292
0
0
2884974
2357814
3475267
3339619
1930862
1508823
2274097
2759982
2598074
2501525
1453431
1259041
1641567
2571801
3317862
3062330
2379756
2401936
3192016
3039161
2959981
2865580
2719722
2302646
2357056
3018516
3416436
2960245
1856923
1817207
2387976
2481062
2990757
2645240
1302474
737795
1637195
2836438
3076919
3134483
2645858
2875482
3227328
2414082
2138685
3103630
2465218
1452271
2169338
2662244
2844036
2656037
2145327
2578777
3105473
2689086
2620904
3102464
2736225
2524571
2704359
2874196
0
0
1768400
1261810
2982923
3438569
2160810
1977863
1917019
2030614
2493142
2517735
1715813
1748979
1192197
1652865
3246419
2376823
1607855
2091637
2382527
2812104
3161980
2872010
2560920
2254730
2555904
2786438
3223438
2672774
2074300
2451632
2861152
2435931
2668118
2741543
1613719
940907
2023496
2307299
1825229
2054571
2607285
2490977
2483989
2323661
1525796
1941769
2535778
1689446
1803579
2316108
1774125
1972500
2397432
2603860
2862316
2375675
1961568
2478662
2177962
1507986
2304828
3016073
0
0
2293070
1749763
2743338
2932412
2627546
2677695
1933042
1727133
2161341
2974612
2792368
2728786
2210510
1786450
2870938
2992452
2484340
2680130
2329342
2072537
2823390
2949910
2450061
2513295
2649273
2751347
3032384
2589734
2377337
3510258
3009194
2141885
2609931
2888571
2526976
2393685
2609870
2163172
1798470
2391878
3028859
3001652
2622428
2127008
1890404
1681268
2101395
2064001
1881418
2542310
2269497
2076940
2656423
2813733
2398433
2022646
1671715
2583348
3017567
2008673
1960395
3065687
0
0
1503597
2082948
2947467
2302258
2113893
2779868
2524367
1934533
1875908
2415589
2984440
3620430
3567997
2555436
2417278
2711055
3175457
3290381
2734163
2190298
3122064
2780934
2236732
2054176
2065541
1999747
2488072
2486955
2661579
3903601
3307921
2086450
2458839
3050752
3158129
2754219
2938471
2080753
1190760
2198511
3555763
2892464
2053259
1965956
1988890
1846362
2060904
2342105
1762863
1636181
2140832
2575728
2581997
2500689
1789665
1855122
1828495
2482838
2568282
2095839
2174979
2878068
0
0
1823525
2360021
2885594
2177556
1992009
2314720
1936083
1797228
1842154
2398280
3464586
3500978
3404438
2339889
1641230
2506504
2960000
3354823
3178546
2686531
2094555
1971176
2355019
2621116
2330175
2317622
2434833
2294973
2403449
3065471
2889412
1664176
1769566
2343592
2998854
3220179
3414456
1984029
1507501
2456108
2572673
2629182
2941320
2516127
2759501
2823665
2339146
2018842
2171892
2104003
2383902
2806626
2469876
2559188
2130453
2186996
2463708
2848752
3258462
3416495
3305362
3019285
0
0
1714093
1902679
3067967
2671729
2250472
2503294
1792670
1524319
1610204
2544941
3280825
3190839
3000933
2529347
2382040
1894249
2147376
2815213
3106599
2963830
2563781
1645411
2008398
3210282
2929151
3066107
3224556
2478189
1874768
2121272
2529970
1722496
1741958
2813363
3123108
3004195
2973623
2210141
1536487
2067776
2070446
2458392
2919724
2798352
2582645
2959607
2536923
1874075
2178572
2474372
2541920
2302238
2017779
2043527
2227806
2932968
3473488
3602809
3348908
3537240
3340059
2591317
0
0
2146135
1897617
2748758
2599926
3045463
2996212
2346419
1796816
2591197
3091429
2869051
2880347
2216075
1850739
1904332
1763919
2264626
3077686
3135073
2699789
2414653
2193691
2151382
3143657
3457692
3312307
3135386
2998615
1924139
1205697
1576914
1338854
1816529
2750180
3299295
3582636
3763906
2573557
1560082
2303854
1947415
2109214
3769686
3227712
2983874
3242431
2071156
1498096
2184662
3049239
2923985
2641985
2501375
2155290
2383549
2895959
3262934
2700767
3140702
3714381
2952246
2344199
0
0
2853664
2604874
2642557
2528405
3430727
3605633
2932089
2774844
2852275
3198031
2842368
2192124
1814671
2044781
2525731
1961202
2066473
2807983
2513374
2017825
2532377
2379613
2095227
2679259
3575263
3480043
3369233
3464577
2844776
1940192
1523032
1255800
1915478
3199154
3535410
3816179
3543616
2364452
2248589
2505824
1746987
2024250
3345595
3052229
2497119
2733855
2117053
1985615
2421167
3240860
3302234
2539256
1924048
1872951
2694340
3810848
3209472
2612444
2659161
2234813
2113508
2491253
0
0
3079886
2511347
2092517
2142363
3163160
2932299
3234900
3335887
3351651
3069835
2315761
1755780
2166445
2773501
2736193
1957275
2278123
2262290
1817988
1875267
2411855
2334811
1493506
1942149
3098148
3169399
2972668
2888792
2883803
2691705
1741115
743840
1718786
3279013
3393575
3897200
3490567
2316578
2138676
1848806
1669236
2097533
3182544
3392045
3151962
2160675
1608782
2492582
3096652
2904779
3002557
2860499
3085541
2731538
2766358
3258350
2887441
2284511
2256144
1962791
2197482
2811935
0
0
3039322
2289573
2395566
2779506
2948776
2959699
2097460
2787542
3006543
2397268
2124000
2151329
2578326
2842039
3368426
2678129
2208924
2016800
1599770
2193796
2738613
1480419
1348350
2003137
2394051
3103944
3071301
2560723
3166016
3696721
2438156
1351692
2001634
2872523
3760292
3914755
2893148
1688797
1777554
2165073
1346378
1888203
3434105
3703215
3239326
2039592
1956291
2839778
3420398
3685653
3390931
3029508
2389764
2274148
2999368
3128776
2497424
2695041
2667010
1882882
2210735
2935920
0
0
2909817
2244892
2199985
2213225
2620696
2837236
2299965
2189390
2589079
2159786
1872778
2372352
2462599
3319427
3662496
2422966
2601829
2974198
2205914
2719406
3527558
2570277
2334820
1967971
1874718
2101711
1851443
2494444
3104632
2527061
2080094
1877994
2363006
3058478
4085320
3879574
2829853
2443517
1959766
1452338
1334430
2468420
3486841
3923723
3092505
1808509
2022003
2386992
2884364
2945851
2746897
2707329
2548534
2443149
3035018
3222685
2566302
2408591
2159219
2460380
3045506
2800557
0
0
3373900
3328189
3122147
2851607
2961073
2846464
1788098
1897576
2887966
2164247
1266967
1963780
2926421
3287849
3186929
2841211
2723121
2471123
2211533
2511167
3301408
2570318
2104249
1850254
1362103
1810581
1964162
2418548
3167126
2986648
2292290
2031791
3132085
3335817
3938834
3330544
2291263
2595424
2294653
1864065
2372780
2846087
3362226
2974819
2241231
2585924
2670994
2374024
2578632
2221381
2467391
2979246
2955417
2552512
3302637
3927808
3143545
2430148
2209765
2732307
2920775
3482535
0
0
3600659
3232545
2863173
2981778
2799905
2503398
2210362
2094581
2011208
1766213
1495299
2394907
3353819
3372137
2990268
2999097
2281734
2065490
2101748
2151103
2762701
2271375
2108102
1837797
1506314
2295486
2351628
2469945
3282462
3209196
2518346
2620589
3157940
3529935
4463800
3783732
2189285
2831909
3543397
2893335
2794468
3084147
3455057
2832474
2764299
2947470
3206232
3050663
2453988
2400514
2218220
2405266
2151100
2852615
3741772
3653104
3268866
2527416
1903977
3003766
3503894
3299368
0
0
4191697
3352715
2866224
2971365
3124730
2585139
1690941
2096555
2209052
1787820
1677860
2900064
3751728
3469737
3383885
3223903
2777911
2410422
1905471
1585404
1638560
1783934
1888869
1470510
1881203
2351596
2543291
3138182
3685232
3271906
2626548
2695518
3020442
2869414
3382128
3142007
2202713
2537827
3221002
3314679
2962206
3057480
3141502
3310246
3089106
3068683
3844926
3604711
3156189
2590236
2896001
3207936
3142403
3398762
3743021
3185511
3310048
2656162
1967910
2671646
2841239
3008022
0
0
3777848
3036913
2240921
3015140
3422023
2895372
2300367
1970287
1884944
2027717
2370036
2829207
3190898
3304598
2839889
2875063
3131587
2667899
2239792
2118748
1575098
1851566
2492038
2782667
2887943
2998625
3181768
2636766
3060614
3072561
2416892
2914574
2419023
1843170
2590036
2914983
3094907
2655556
2824945
2756942
2508605
2222574
2649332
3617760
3151815
3025634
3521500
3272344
2608679
2811353
2534808
2680521
3425104
3293655
2735134
2426196
2687810
2781992
2707052
2505789
2709175
2444347
0
0
3521665
3035560
2686529
2756602
2720076
2741216
2908483
2520591
2508431
2828902
2057617
2002140
2602021
2493181
3001433
3538821
3648379
3305530
2967961
2776562
1521635
1897206
3241564
3465881
3778436
3209004
2156695
2291888
3151934
2741600
2114897
2313928
2055419
1883915
1730358
2202175
3011135
2799242
1998881
1603315
2015299
1870636
2323236
3192076
2760305
3232152
3887416
3330296
2543032
2450745
2519665
3565518
4089609
3485189
2903553
2170607
2658646
3653911
3299200
3020566
2859806
2781953
0
0
2801118
3279291
2636978
2743237
2498565
2743774
3453863
2741282
2476371
2668001
2336658
2079095
2366846
2633582
2892136
3196266
3427608
3429350
2898891
3104173
2506994
2727190
3247579
3707280
4193993
3729353
2886092
2432930
2197371
2465857
3046913
2404558
1798535
1901797
1758537
2037964
2913893
3052540
2452914
2293526
2184700
2180162
2674348
3033590
2201574
2356558
2840511
2290584
2192450
2618854
2141990
2994647
3422496
3274844
3254971
2357941
2360251
2870674
3128767
2983632
3459351
2785304
0
0
2597985
3023810
3057450
3179639
2326279
1974902
2365438
2957007
3265810
2614666
2135533
2408325
2172345
2142569
2678766
2877525
2722124
2788733
3152769
3599874
3021241
3344660
3496990
2896756
3244702
3499517
2522178
2520355
2975281
3185620
3433592
2652647
2135307
2547165
2177249
1666654
2201833
2724587
3029286
2417879
2563821
2952194
3204069
3179367
2675189
2484423
2605779
2621294
2715944
2548077
2005991
3221369
2991537
2530716
3283666
2923854
2485450
2666322
2768351
2954042
3184377
2518240
0
0
2732524
2875409
2577472
3235537
3372051
2073189
1867636
2897947
3194833
2604509
1972549
2494672
3168630
2840799
2016645
1701575
1352098
1779754
2557580
2820007
2482722
3002345
3142780
2453564
2359613
2910339
3129543
3192217
2925696
2705462
3240399
2471713
2063333
3143589
3000063
1984024
1560217
2157724
2581056
2368628
2477825
3141873
3643459
3289009
3118012
2163086
1898039
2863827
3161750
2855089
1714864
2494327
3059644
3446969
3455663
3008711
3343627
3122850
2739595
2617100
2836014
2560224
0
0
2306278
2827024
2335907
2576725
3060546
2184404
2303088
2741490
2442015
2467965
2738964
2599922
2204064
2303533
2050543
1461911
1007954
1220512
2021187
2217241
2057912
2395069
2546244
2012912
1798649
1995102
2230384
2275908
2351613
2845415
3475571
2997592
2245935
3149315
3500641
2736550
1531399
1299501
2498014
2927684
2608776
2628388
2662878
2352777
2765140
2571623
2931952
3395336
3648987
3158607
1894495
2173435
2916758
2810186
2463887
2383447
3294438
3561665
3318657
3064154
2639795
1943416
0
0
2542816
3306695
2484948
1272294
1852101
2538995
2837200
3260356
2681749
2850047
2914249
2191116
2022943
2558219
1984800
1765283
1777028
1684423
1784944
2226898
1946945
2268658
2302082
1874010
2135237
1999951
1747699
1992170
2187532
2083900
2441681
2196116
2092385
3222411
3316777
2601266
2139149
2404441
2787339
2913601
2717916
2917059
2721237
1658546
1636507
2811835
3350919
3475449
3337023
3303925
2038206
2034195
3023406
3271232
2283980
1614385
2849997
3445335
3103946
2889010
2546444
2040837
0
0
2352307
3528152
3382912
1697090
1415594
2391152
3041273
2689883
2539007
2899560
3463058
3062972
2193119
2263788
2107777
2826385
2613746
1892274
2436545
2138814
1979991
2746497
3196305
2669951
2590551
1992329
1271324
1690904
2480341
2053309
2162218
2253187
2667735
3609233
3327712
2276251
2023829
2800495
3736591
4027985
3509366
3033096
3120538
2032298
1116616
1575991
2708345
3038432
2802634
3104948
2490773
1979777
2596096
2612361
1517311
1545347
2021341
2069696
2180129
2780003
2689885
1784752
0
0
3153440
3631609
3471600
2477413
2420185
3183958
3052344
2297679
2602276
3551661
3475832
2608225
2567961
2241171
2306427
3102369
3135931
2883362
2074994
2047036
2016549
2397559
3252663
3284857
2706831
2346056
2694066
2550009
2710050
2371675
1638491
1691365
2821754
3944088
3503543
2032550
2364971
3658223
3759914
3416916
2910437
3147658
3468275
2526266
2177435
2128598
2123452
2651195
2552902
2807587
3085947
2935059
3015024
2636453
1903720
2015798
2550372
2330855
2887967
3359570
2967959
2387722
0
0
2855267
3132315
3421942
3141075
3455892
3720126
3576837
2180337
1790699
3594915
3511004
2963372
2571872
1830822
2079480
3059578
3426260
2821750
2408020
2513830
2381228
2516447
2763117
3795709
3378193
2591161
3050679
2736965
2354252
2712298
2529500
2238285
2684817
3424638
3315143
3043084
2697797
2983437
3570924
2909437
2863803
3119035
2553746
2454731
2945320
2397488
1510116
2192278
2537954
2811488
3363499
3689427
3050845
2722491
1998252
2079004
2581868
2084330
2017465
3034443
3736457
3334727
0
0
2902588
3497545
3319875
3304543
3673869
3533936
3403353
2488756
2615629
3517189
3295506
2487585
2071874
1690666
1460379
2542925
3002557
2352064
1988013
2265673
2965001
2718166
2397969
2815759
2877426
2824340
3684390
3609274
2832825
3349881
3199145
2034028
2266090
2515039
2369925
2451297
2526137
3251300
3428300
2645092
2172109
2613820
2486719
2527069
3274617
2629626
1690738
2450383
3015337
2057289
2364324
3190479
3153296
2816444
2281793
2377007
2825992
2204322
2123884
2382497
2834190
3149557
0
0
2086378
2895314
3292144
2649537
2541764
2815377
2874320
3075705
3077285
3094759
3044225
2433497
2326612
2100383
1312962
2593680
3195381
2201827
1427517
2190481
3235604
2916725
2645722
2699104
2443648
2822314
3178414
2947733
2531297
3055350
3367698
2510131
1682702
1974649
2008718
1845799
2356157
2358356
3055962
3184383
2203429
2299949
3276328
3338435
3040558
2478477
1860868
2789406
2750239
2289665
2652870
3061912
2891265
2329830
2164379
2201238
2207270
2212495
2334708
2303568
2798162
3091902
0
0
3257075
3641557
3073670
2127445
1785155
1922771
2712810
3771374
3489373
3165339
3018012
2724903
2662686
2528903
2273882
2720731
2992601
2179687
1591074
2014741
2168669
2663228
2787613
2888091
2304019
2284487
2910799
3233990
2883831
2744570
2795728
2459079
2056693
2239346
1782959
1421068
2136754
2610656
2783222
3201897
2235406
2316723
2893640
3027739
2984215
1878257
1287439
2567377
2718091
2119041
2183516
2399368
2342733
2545330
2597058
2679113
2842591
2714369
2556633
2501943
2176133
2253488
0
0
3155419
3095356
2751528
1363745
966161
1171644
1780690
3122574
3790456
3431674
3088238
3089437
2992118
2526648
2632736
2878220
2749999
2610078
2621784
2220275
2440387
2199530
2435068
3244782
3476910
2370409
2213450
3027149
2447500
1834368
2753937
3351256
3029247
2890094
2966188
2463562
2404222
2869258
2918913
2752989
3318678
2999337
2402023
2762423
2998413
2388325
1495723
2541350
3032714
2139762
2820943
3285852
2572752
2439580
2756308
2307162
2410795
3190496
3224006
3503676
3135993
2869027
0
0
3810852
3607701
2795993
2192761
1401037
1424837
1722367
2130974
3094639
3899996
3745379
3625462
3318060
2715954
3167428
3157156
2487787
2457227
2846715
2874404
2772737
2836353
2873233
3291205
3483519
2593461
2668107
3332451
2850376
2363838
2927579
3588738
3763271
3537995
3380012
2336873
2544246
3571547
3411704
3060321
2729011
2443258
2303916
2641168
2778714
1865097
1267466
2342479
2685703
1753528
2168326
2348052
2398705
2870046
3514084
2814094
2812709
3348693
3229157
3137917
2551391
2628656
0
0
2916031
2902220
2616923
2015232
1090489
1068610
1298970
1327324
2542847
3577800
3348855
3000529
3259079
2860370
3362342
3564646
2705176
1965627
2275634
2109890
2151224
2395634
3233753
3199427
2890639
2921867
2668980
2463461
2490646
2489364
3469092
4119864
3486715
2909058
3128740
2612952
2475941
2909532
3470799
3232658
3111777
2730222
2287948
3021780
2941959
2300574
1491587
2128521
2345371
2221511
2599928
2905912
2658675
2761453
2680314
2591452
2646038
2849019
3338176
3123598
2697489
2900990
0
0
2689704
3469622
3010590
2424075
2093287
1921780
1995856
1812966
2575802
3178754
3368259
3103408
2819322
3308629
4161166
3999561
2806296
2508651
2242742
1842561
1698277
2286403
3381336
3392487
2883446
2414184
2539851
2361132
2114232
2900179
3406708
3867810
3486629
2583497
2525227
2442684
1883320
2362824
3093309
3681990
3180300
1857873
2185005
2861652
2465025
2094353
2183799
2290383
2530823
2509727
3214310
2478386
2435189
2844604
2640069
2794905
2512902
2203737
2596451
2325136
1679490
2515709
0
0
2379231
3284529
3128045
2462119
1599437
1786880
1966981
2449736
2866704
2350965
2440460
2350027
2114593
2903613
3830318
3578099
2880214
2620549
2560085
2325176
1772463
1917223
2721172
2821418
2870951
2418962
2363662
1486332
2174171
2906508
2945400
3347994
3233236
2546444
1968070
2111157
2526905
2462626
2843812
3429482
3048981
1971351
1649956
2501361
2544085
2217355
2765299
2510375
2016917
2376615
2888984
2224632
1709416
1763162
1930347
2555019
2515313
2287993
2288117
1950092
1518885
2018899
0
0
2125792
3251463
3385082
2154678
2005013
2458664
2740896
2651076
2644808
2145630
2353260
2178272
1877906
2890050
3500715
2833593
1876691
2367095
3535583
3288004
2326894
2284723
2316801
2616789
2134517
2278195
2761409
2300231
2546329
2896070
3257056
3805889
3087598
2194198
1608801
2398546
2862658
2143922
2540560
3304363
2722550
1722705
1518702
2133022
2322305
2202922
3342405
3146206
2487904
2568349
3033115
2315296
1603874
2060992
2322464
2449291
2612420
3081618
2997113
2513997
1975498
2415350
0
0
2244406
3163180
2984892
2077796
1773577
2091258
2818286
3338071
2672976
1981169
1993708
1835219
2099908
2849852
3121925
2912207
2064731
1844255
3186384
3339483
2778049
2641966
2685657
2443438
1872553
2544948
3317542
3136527
2569340
2712603
3297684
3713642
2688791
2023081
1408548
2033239
2541368
2149813
1809370
2708166
3157725
2680005
2021310
1949494
2306955
2304098
3224856
3488989
2586293
2725685
2676305
1973112
1461736
1788317
2501776
3036115
2481845
2938165
3440142
2462303
2210742
2211222
0
0
2685547
2732095
2813089
1996577
1965559
2551454
3176182
3560258
2186774
1619219
2595445
2650028
2486924
2856832
3102509
2868082
2119595
1947574
3028555
2919101
2406241
2303936
2844360
2458284
1831963
1707221
2875123
3274046
2475516
2647335
3374624
3446356
3067633
1984816
1396402
1819414
2368352
2181628
1788266
2437149
3088172
3053977
2331787
2258712
2850433
2582751
2994127
3214008
3077780
3206785
2924966
2484643
1845312
1925513
2924832
3408391
2923684
3136597
3136310
2886173
1983944
1820757
0
0
2521062
2570039
3020176
2411478
2473246
2529350
2935999
3285010
2397239
2311345
2641723
2730723
2914690
2928124
2337651
2551313
2196060
1897375
2720718
3142424
2208066
1771812
2158047
2442804
1817900
1116301
1999338
2609593
1928233
2508601
3463867
3212144
2694243
2172133
2210905
2412983
2479853
2378349
1902301
2534426
3342163
2759496
2207216
2999726
3285633
2567666
2492407
3120434
3456427
3547421
2675945
2052411
2023331
2171567
3053142
3886541
2693040
1602090
1908780
2320226
1955647
1728531
0
0
2562857
2231957
2275888
2219756
2468792
2571851
2743200
2634402
2453345
2504905
3397016
3497019
3254045
2821833
2152001
2107238
1992083
2843785
3341582
2884863
2268735
1794968
1531492
2210040
2265782
1652621
1825305
2792459
2346941
2275371
2620643
3252593
2932881
1923444
2232455
2786069
2651826
2440378
2474494
2577332
2296921
1894554
2093004
2417760
2977346
2737207
2816938
2474836
2157221
2863975
3646629
2819338
2703775
2755752
2808616
3506258
2999250
2797396
2179343
2453496
3089829
2696682
0
0
2816048
2480629
2341409
2081746
2036610
2559575
2572283
2528207
2387592
3243473
3873616
3512271
2975561
2864141
2608949
2186476
2203948
2395071
3330453
3289137
2909736
1991484
1938787
2178574
2202684
2081385
2381368
3738409
3561738
2882142
2681320
2985505
3110835
2432659
2416356
2980523
2774297
3078199
2745789
2021758
2163249
2514724
2621217
2563408
2437511
2696430
2293565
2157147
2592528
2433025
2658706
2903352
3254083
3036351
2863534
2543417
2393208
2571392
1650474
1708025
2630571
2894653
0
0
2340760
2684735
2643983
2120492
2157727
1734453
1867857
1864293
2238423
3028280
3870726
3638318
2973288
3454871
2889283
2748377
2846576
3139581
3534967
3717143
3082970
2479752
2326960
2252893
2387126
2138803
2798540
4259774
4314310
2884419
2276564
3017355
3435528
2824956
2555821
3134634
3245474
3331949
2697228
1930479
2599204
3359645
2960197
1755222
1761325
2542977
2490752
2204663
1795863
1362960
1916766
2843659
3604751
3222496
2083866
1762472
2631332
3229748
2609969
1899694
2252036
2908755
0
0
2418334
2589956
2955292
3322099
2948507
2699443
1927105
1460221
1323123
1859656
2901711
3282857
2918426
3129083
3381982
3131275
2835298
2396066
2698741
3812965
3764636
2399703
1733865
1822266
1411308
1446528
2608601
3933693
3963192
3425504
3373239
3132892
3207875
2991619
2980056
3003593
3345913
3826218
3207230
3110530
3244170
3649319
3658943
2302120
1347400
1840832
1896392
1572137
1650256
1740697
1928025
2423302
3193993
3163516
2346065
1844265
2219569
2736926
1957632
1376566
1801434
2414439
0
0
2024996
3042650
3155970
2434111
2742631
2639537
2007725
2053613
2034411
1872542
2185841
3466556
3299862
2924009
3319108
3606791
3403704
3016917
2897407
3449216
3190351
2590654
1512553
928003
1155900
1486757
2324251
3076160
3593166
3279466
2994337
2866596
2564937
2337140
2577270
2699392
2810437
3134886
2472730
2797132
3059043
3140142
3680628
2564400
1695788
1997935
1465803
1795986
1868703
1559162
2559924
2777493
2781367
2957873
2646935
2656158
2248803
2401016
2622255
2316014
1999360
2635305
0
0
2385419
2970549
2688430
2274675
2279049
2478611
3305491
3066483
2044398
1497766
1971671
2943556
2806956
2748020
3291197
3734625
3226548
3239494
2980063
2821522
3606090
3338231
1969299
1093600
1432968
2203293
2557709
2948289
3529194
3308058
2816261
2333593
2582721
2754459
2798217
2075099
1896136
2624412
1882312
2029140
2733254
3242241
3637558
3222318
2544004
1917783
1988487
2118686
2100347
2499021
2961257
2760686
3008426
2453046
2447799
2523782
1646192
1704040
2443122
2283897
2216380
2542053
0
0
2517586
2280803
2060862
1355543
1444381
2455801
3363098
3549093
2758060
2318468
2549681
2316712
2638255
2685566
2587404
3244674
3447382
3227880
2889864
3094476
2815631
2930368
2797618
1904307
1894818
2232461
2340265
2668063
2878266
3009747
2251470
1935665
2428018
2488120
2408800
2302640
1688717
2135340
1948833
1342442
2196198
2513706
2894763
3311484
2550839
2764577
3166707
2789433
2953162
3072799
2226665
2295379
3054124
2842447
2723278
2354513
1640949
2065644
2775999
2855239
2475738
2305699
0
0
2236737
1686998
1769514
1905122
2408827
2283019
3131824
3758148
2380365
2315069
2925799
2687576
2722193
2634990
3088787
3335152
2316587
1935171
2741236
2410749
2120086
2485290
2748060
2232989
2815697
2657223
2309898
2803680
2574443
2310157
2146849
2380791
2682654
2775135
2806314
2481321
1937182
2653687
2489374
1901136
2277681
2773643
2914195
2575393
2346262
2409113
3808078
3435148
2392301
2914161
2832060
2597918
3082545
3038923
2495276
2506909
2545401
2822256
2995954
3134945
2792727
3006389
0
0
2301515
1936739
2291449
2919897
2384629
2030480
2770327
3510007
3056207
2867131
3382594
3355834
2083164
2274678
3079014
2918965
2046733
1412842
1808457
2122153
1729054
1742028
1657732
1998301
2594793
2503431
2291908
2308774
1731708
1977707
1889173
2031958
2801388
2268227
2144621
3087403
2213068
1782324
2634310
2523654
2263175
2312164
1851637
1430725
1543493
2125529
3217092
3390763
2954161
2872878
2982872
2241509
2558351
2834473
2590739
3141270
2639065
2721982
2763312
2874490
3125301
3435597
0
0
2579093
2568433
2928664
2901996
2643324
2245286
2037022
2857059
2848228
2882950
3634654
3968285
2669822
2218335
3084427
2724478
2223239
2146476
2321830
1644237
2266980
2617541
1910573
2086669
3108720
3293743
2988789
3088150
2641865
2103495
1714959
2019496
2410360
2718894
3267981
3552312
3165586
3159479
3318092
3220861
2791459
2783276
2905019
2116534
1925682
2294184
2695123
3425799
3188343
3149984
2960997
2533956
2351191
2009093
2145876
2393042
2415285
2322716
2765877
2889453
2816615
3405894
0
0
2645959
3077268
2589982
2060027
2462671
2939545
2343314
2479764
3278237
2779315
2373209
2848508
2368891
2290769
2417590
2244811
2167712
2257572
2287994
2172626
2127556
2379738
2324704
2424555
2894298
2902526
2791628
3320459
3302466
3032473
2848285
2455663
2270629
2687552
2855793
3246456
3419520
3120934
3273259
3487320
3309390
2954763
2939909
2906302
2804659
2551803
2057805
2564117
3772897
3612138
2652228
2167670
1560890
1633371
2236313
2885086
2197033
1646503
2341271
2697549
2470250
2689448
0
0
2213717
2412423
2730842
1741793
2169491
3748642
3072763
2345432
2915016
2828845
2427824
2643383
3140045
3020508
2355462
1641171
1856736
2514565
3135044
2588707
1595844
2291126
3127006
3773192
3992705
2966167
2478893
2770523
2977745
3155146
2908121
2438619
2603511
2851998
2455857
3167802
3509052
3251584
3182599
3187653
4330332
3606773
2770244
3355007
3472783
2772580
2205830
2583044
3201916
3129722
2454989
2132623
2028648
1941429
2134149
3023855
2954105
2415619
2989893
2708566
2378766
2564267
0
0
2165778
2066838
2640330
2032941
2060913
3215067
3326397
2460952
3317941
3464648
2213792
2325094
3225312
2823884
1851631
1355563
1081870
1611962
2987063
3033094
2008387
1955343
3127786
3518585
3675192
3026291
2044224
1823141
1760605
2474390
3104148
2311259
2922389
3371599
2886455
2731408
2378329
2257124
2554146
2706750
3658331
3755853
2714290
2627364
3048190
2662849
1938116
2201914
3182319
3106708
1999987
2172217
2324110
1571544
2092179
3303380
3535479
3045212
2246339
2330125
2553565
2854196
0
0
2498868
2585891
3246514
2874609
2147069
3030330
3378683
2913122
2687885
2749028
2377718
2704733
2980781
3195790
2251047
1362506
1691293
2465670
3423766
3507563
2647205
2647232
3190311
3646864
3514951
2682133
2213688
2347044
1146058
1551423
2510442
2104172
2407001
2674030
2787865
3187772
2543892
1930989
2067212
2132692
2839446
3469673
2552600
2258469
2168974
2152241
2357778
2827437
3296258
2350983
1841100
2893485
3044554
2539808
2490911
2513183
3397915
3264343
2679635
2403424
2641485
2745688
0
0
0
0
0
0
0
0
0
0
0
0
0
0
0
0
0
0
0
0
0
0
0
0
0
0
0
0
0
0
0
0
0
0
0
0
0
0
0
0
0
0
0
0
0
0
0
0
0
0
0
0
0
0
0
0
0
0
0
0
0
0
0
0
0
0
0
0
0
0
0
0
0
0
0
0
0
0
0
0
0
0
0
0
0
0
0
0
0
0
0
0
0
0
0
0
0
0
0
0
0
0
0
0
0
0
0
0
0
0
0
0
0
0
0
0
0
0
0
0
0
0
0
0
0
0
0
0
0
0